^D:\後期チーム制作\3DGP.00\BLENDSTATE.CPP|D:\後期チーム制作\3DGP.00\CAMERA.CPP|D:\後期チーム制作\3DGP.00\COLLISION.CPP|D:\後期チーム制作\3DGP.00\FBX_LOAD.CPP|D:\後期チーム制作\3DGP.00\FRAMEWORK.CPP|D:\後期チーム制作\3DGP.00\GEOMETRIC_PRIMITIVE.CPP|D:\後期チーム制作\3DGP.00\IMGUI\IMGUI.CPP|D:\後期チーム制作\3DGP.00\IMGUI\IMGUI_DEMO.CPP|D:\後期チーム制作\3DGP.00\IMGUI\IMGUI_DRAW.CPP|D:\後期チーム制作\3DGP.00\IMGUI\IMGUI_IMPL_DX11.CPP|D:\後期チーム制作\3DGP.00\IMGUI\IMGUI_IMPL_WIN32.CPP|D:\後期チーム制作\3DGP.00\IMGUI\IMGUI_WIDGETS.CPP|D:\後期チーム制作\3DGP.00\LOGGER.CPP|D:\後期チーム制作\3DGP.00\MAIN.CPP|D:\後期チーム制作\3DGP.00\MODEL.CPP|D:\後期チーム制作\3DGP.00\MODEL_RENDERER.CPP|D:\後期チーム制作\3DGP.00\MODEL_RESOURCE.CPP|D:\後期チーム制作\3DGP.00\PLAYER.CPP|D:\後期チーム制作\3DGP.00\RANKING.CPP|D:\後期チーム制作\3DGP.00\RESOURCEMANAGER.CPP|D:\後期チーム制作\3DGP.00\SCENE_GAME.CPP|D:\後期チーム制作\3DGP.00\SCENE_MANAGER.CPP|D:\後期チーム制作\3DGP.00\SCENE_OVER.CPP|D:\後期チーム制作\3DGP.00\SCENE_RESULT.CPP|D:\後期チーム制作\3DGP.00\SCENE_TITLE.CPP|D:\後期チーム制作\3DGP.00\SKINNED_MESH.CPP|D:\後期チーム制作\3DGP.00\SOUND.CPP|D:\後期チーム制作\3DGP.00\SOUND_BUFFER.CPP|D:\後期チーム制作\3DGP.00\SPRITE.CPP|D:\後期チーム制作\3DGP.00\STAGE_MANAGER.CPP|D:\後期チーム制作\3DGP.00\STATIC_MESH.CPP|D:\後期チーム制作\3DGP.00\UI.CPP
D:\後期チーム制作\3DGP.00\X64\DEBUG\VC140.PDB
D:\後期チーム制作\3DGP.00\X64\DEBUG\VC140.IDB
D:\後期チーム制作\3DGP.00\X64\DEBUG\MAIN.OBJ
D:\後期チーム制作\3DGP.00\X64\DEBUG\FRAMEWORK.OBJ
D:\後期チーム制作\3DGP.00\X64\DEBUG\MODEL.OBJ
D:\後期チーム制作\3DGP.00\X64\DEBUG\MODEL_RENDERER.OBJ
D:\後期チーム制作\3DGP.00\X64\DEBUG\MODEL_RESOURCE.OBJ
D:\後期チーム制作\3DGP.00\X64\DEBUG\PLAYER.OBJ
D:\後期チーム制作\3DGP.00\X64\DEBUG\RANKING.OBJ
D:\後期チーム制作\3DGP.00\X64\DEBUG\RESOURCEMANAGER.OBJ
D:\後期チーム制作\3DGP.00\X64\DEBUG\SCENE_GAME.OBJ
D:\後期チーム制作\3DGP.00\X64\DEBUG\SCENE_MANAGER.OBJ
D:\後期チーム制作\3DGP.00\X64\DEBUG\SCENE_RESULT.OBJ
D:\後期チーム制作\3DGP.00\X64\DEBUG\SCENE_TITLE.OBJ
D:\後期チーム制作\3DGP.00\X64\DEBUG\SKINNED_MESH.OBJ
D:\後期チーム制作\3DGP.00\X64\DEBUG\SOUND.OBJ
D:\後期チーム制作\3DGP.00\X64\DEBUG\SOUND_BUFFER.OBJ
D:\後期チーム制作\3DGP.00\X64\DEBUG\SPRITE.OBJ
D:\後期チーム制作\3DGP.00\X64\DEBUG\STAGE_MANAGER.OBJ
D:\後期チーム制作\3DGP.00\X64\DEBUG\STATIC_MESH.OBJ
D:\後期チーム制作\3DGP.00\X64\DEBUG\UI.OBJ
D:\後期チーム制作\3DGP.00\X64\DEBUG\BLENDSTATE.OBJ
D:\後期チーム制作\3DGP.00\X64\DEBUG\CAMERA.OBJ
D:\後期チーム制作\3DGP.00\X64\DEBUG\COLLISION.OBJ
D:\後期チーム制作\3DGP.00\X64\DEBUG\FBX_LOAD.OBJ
D:\後期チーム制作\3DGP.00\X64\DEBUG\GEOMETRIC_PRIMITIVE.OBJ
D:\後期チーム制作\3DGP.00\X64\DEBUG\IMGUI.OBJ
D:\後期チーム制作\3DGP.00\X64\DEBUG\IMGUI_DEMO.OBJ
D:\後期チーム制作\3DGP.00\X64\DEBUG\IMGUI_DRAW.OBJ
D:\後期チーム制作\3DGP.00\X64\DEBUG\IMGUI_IMPL_DX11.OBJ
D:\後期チーム制作\3DGP.00\X64\DEBUG\IMGUI_IMPL_WIN32.OBJ
D:\後期チーム制作\3DGP.00\X64\DEBUG\IMGUI_WIDGETS.OBJ
D:\後期チーム制作\3DGP.00\X64\DEBUG\LOGGER.OBJ
^D:\後期チーム制作\3DGP.00\BLENDSTATE.CPP
D:\後期チーム制作\3DGP.00\X64\DEBUG\VC140.PDB
^D:\後期チーム制作\3DGP.00\CAMERA.CPP
D:\後期チーム制作\3DGP.00\X64\DEBUG\VC140.PDB
^D:\後期チーム制作\3DGP.00\COLLISION.CPP
D:\後期チーム制作\3DGP.00\X64\DEBUG\VC140.PDB
^D:\後期チーム制作\3DGP.00\FBX_LOAD.CPP
D:\後期チーム制作\3DGP.00\X64\DEBUG\VC140.PDB
^D:\後期チーム制作\3DGP.00\GEOMETRIC_PRIMITIVE.CPP
D:\後期チーム制作\3DGP.00\X64\DEBUG\VC140.PDB
^D:\後期チーム制作\3DGP.00\IMGUI\IMGUI.CPP
D:\後期チーム制作\3DGP.00\X64\DEBUG\VC140.PDB
^D:\後期チーム制作\3DGP.00\IMGUI\IMGUI_DEMO.CPP
D:\後期チーム制作\3DGP.00\X64\DEBUG\VC140.PDB
^D:\後期チーム制作\3DGP.00\IMGUI\IMGUI_DRAW.CPP
D:\後期チーム制作\3DGP.00\X64\DEBUG\VC140.PDB
^D:\後期チーム制作\3DGP.00\IMGUI\IMGUI_IMPL_DX11.CPP
D:\後期チーム制作\3DGP.00\X64\DEBUG\VC140.PDB
^D:\後期チーム制作\3DGP.00\IMGUI\IMGUI_IMPL_WIN32.CPP
D:\後期チーム制作\3DGP.00\X64\DEBUG\VC140.PDB
^D:\後期チーム制作\3DGP.00\IMGUI\IMGUI_WIDGETS.CPP
D:\後期チーム制作\3DGP.00\X64\DEBUG\VC140.PDB
^D:\後期チーム制作\3DGP.00\LOGGER.CPP
D:\後期チーム制作\3DGP.00\X64\DEBUG\VC140.PDB
^D:\後期チーム制作\3DGP.00\MAIN.CPP
D:\後期チーム制作\3DGP.00\X64\DEBUG\VC140.PDB
^D:\後期チーム制作\3DGP.00\FRAMEWORK.CPP
D:\後期チーム制作\3DGP.00\X64\DEBUG\VC140.PDB
^D:\後期チーム制作\3DGP.00\MODEL.CPP
D:\後期チーム制作\3DGP.00\X64\DEBUG\VC140.PDB
^D:\後期チーム制作\3DGP.00\MODEL_RENDERER.CPP
D:\後期チーム制作\3DGP.00\X64\DEBUG\VC140.PDB
^D:\後期チーム制作\3DGP.00\MODEL_RESOURCE.CPP
D:\後期チーム制作\3DGP.00\X64\DEBUG\VC140.PDB
^D:\後期チーム制作\3DGP.00\PLAYER.CPP
D:\後期チーム制作\3DGP.00\X64\DEBUG\VC140.PDB
^D:\後期チーム制作\3DGP.00\RANKING.CPP
D:\後期チーム制作\3DGP.00\X64\DEBUG\VC140.PDB
D:\後期チーム制作\3DGP.00\X64\DEBUG\VC140.IDB
D:\後期チーム制作\3DGP.00\X64\DEBUG\RANKING.OBJ
^D:\後期チーム制作\3DGP.00\RESOURCEMANAGER.CPP
D:\後期チーム制作\3DGP.00\X64\DEBUG\VC140.PDB
^D:\後期チーム制作\3DGP.00\SCENE_GAME.CPP
D:\後期チーム制作\3DGP.00\X64\DEBUG\VC140.PDB
D:\後期チーム制作\3DGP.00\X64\DEBUG\VC140.IDB
D:\後期チーム制作\3DGP.00\X64\DEBUG\SCENE_GAME.OBJ
^D:\後期チーム制作\3DGP.00\SCENE_MANAGER.CPP
D:\後期チーム制作\3DGP.00\X64\DEBUG\VC140.PDB
^D:\後期チーム制作\3DGP.00\SCENE_OVER.CPP
D:\後期チーム制作\3DGP.00\X64\DEBUG\VC140.PDB
D:\後期チーム制作\3DGP.00\X64\DEBUG\VC140.IDB
D:\後期チーム制作\3DGP.00\X64\DEBUG\SCENE_OVER.OBJ
^D:\後期チーム制作\3DGP.00\SCENE_RESULT.CPP
D:\後期チーム制作\3DGP.00\X64\DEBUG\VC140.PDB
^D:\後期チーム制作\3DGP.00\SCENE_TITLE.CPP
D:\後期チーム制作\3DGP.00\X64\DEBUG\VC140.PDB
^D:\後期チーム制作\3DGP.00\SKINNED_MESH.CPP
D:\後期チーム制作\3DGP.00\X64\DEBUG\VC140.PDB
^D:\後期チーム制作\3DGP.00\SOUND.CPP
D:\後期チーム制作\3DGP.00\X64\DEBUG\VC140.PDB
^D:\後期チーム制作\3DGP.00\SOUND_BUFFER.CPP
D:\後期チーム制作\3DGP.00\X64\DEBUG\VC140.PDB
^D:\後期チーム制作\3DGP.00\SPRITE.CPP
D:\後期チーム制作\3DGP.00\X64\DEBUG\VC140.PDB
^D:\後期チーム制作\3DGP.00\STAGE_MANAGER.CPP
D:\後期チーム制作\3DGP.00\X64\DEBUG\VC140.PDB
D:\後期チーム制作\3DGP.00\X64\DEBUG\VC140.IDB
D:\後期チーム制作\3DGP.00\X64\DEBUG\STAGE_MANAGER.OBJ
^D:\後期チーム制作\3DGP.00\STATIC_MESH.CPP
D:\後期チーム制作\3DGP.00\X64\DEBUG\VC140.PDB
^D:\後期チーム制作\3DGP.00\UI.CPP
D:\後期チーム制作\3DGP.00\X64\DEBUG\VC140.PDB
D:\後期チーム制作\3DGP.00\X64\DEBUG\VC140.IDB
D:\後期チーム制作\3DGP.00\X64\DEBUG\UI.OBJ
^D:\後期チーム制作\3DGP.00\RANKING.CPP|D:\後期チーム制作\3DGP.00\SCENE_GAME.CPP|D:\後期チーム制作\3DGP.00\SCENE_OVER.CPP|D:\後期チーム制作\3DGP.00\SCENE_RESULT.CPP|D:\後期チーム制作\3DGP.00\SCENE_TITLE.CPP|D:\後期チーム制作\3DGP.00\STAGE_MANAGER.CPP|D:\後期チーム制作\3DGP.00\UI.CPP
D:\後期チーム制作\3DGP.00\X64\DEBUG\VC140.PDB
D:\後期チーム制作\3DGP.00\X64\DEBUG\VC140.IDB
D:\後期チーム制作\3DGP.00\X64\DEBUG\RANKING.OBJ
D:\後期チーム制作\3DGP.00\X64\DEBUG\UI.OBJ
D:\後期チーム制作\3DGP.00\X64\DEBUG\SCENE_GAME.OBJ
D:\後期チーム制作\3DGP.00\X64\DEBUG\SCENE_RESULT.OBJ
D:\後期チーム制作\3DGP.00\X64\DEBUG\SCENE_TITLE.OBJ
D:\後期チーム制作\3DGP.00\X64\DEBUG\STAGE_MANAGER.OBJ
^D:\後期チーム制作\3DGP.00\SCENE_MANAGER.CPP|D:\後期チーム制作\3DGP.00\SCENE_OVER.CPP
D:\後期チーム制作\3DGP.00\X64\DEBUG\VC140.PDB
D:\後期チーム制作\3DGP.00\X64\DEBUG\VC140.IDB
D:\後期チーム制作\3DGP.00\X64\DEBUG\SCENE_MANAGER.OBJ
D:\後期チーム制作\3DGP.00\X64\DEBUG\SCENE_OVER.OBJ
^D:\後期チーム制作\3DGP.00\PARTICLE.CPP
D:\後期チーム制作\3DGP.00\X64\DEBUG\VC140.PDB
D:\後期チーム制作\3DGP.00\X64\DEBUG\VC140.IDB
D:\後期チーム制作\3DGP.00\X64\DEBUG\PARTICLE.OBJ
^D:\後期チーム制作\3DGP.00\BACKGROUNDOBJ.CPP
D:\後期チーム制作\3DGP.00\X64\DEBUG\VC140.PDB
D:\後期チーム制作\3DGP.00\X64\DEBUG\VC140.IDB
D:\後期チーム制作\3DGP.00\X64\DEBUG\BACKGROUNDOBJ.OBJ
^D:\後期チーム制作\3DGP.00\BOARD.CPP
D:\後期チーム制作\3DGP.00\X64\DEBUG\VC140.PDB
D:\後期チーム制作\3DGP.00\X64\DEBUG\VC140.IDB
D:\後期チーム制作\3DGP.00\X64\DEBUG\BOARD.OBJ
^D:\後期チーム制作\3DGP.00\STAGEOBJ.CPP
D:\後期チーム制作\3DGP.00\X64\DEBUG\VC140.PDB
D:\後期チーム制作\3DGP.00\X64\DEBUG\VC140.IDB
D:\後期チーム制作\3DGP.00\X64\DEBUG\STAGEOBJ.OBJ
^D:\後期チーム制作\3DGP.00\GOAL_PRODUCTION.CPP
D:\後期チーム制作\3DGP.00\X64\DEBUG\VC140.PDB
D:\後期チーム制作\3DGP.00\X64\DEBUG\VC140.IDB
D:\後期チーム制作\3DGP.00\X64\DEBUG\GOAL_PRODUCTION.OBJ
^D:\後期チーム制作\3DGP.00\FRAMEWORK.CPP|D:\後期チーム制作\3DGP.00\MAIN.CPP
D:\後期チーム制作\3DGP.00\X64\DEBUG\VC140.PDB
D:\後期チーム制作\3DGP.00\X64\DEBUG\VC140.IDB
D:\後期チーム制作\3DGP.00\X64\DEBUG\FRAMEWORK.OBJ
D:\後期チーム制作\3DGP.00\X64\DEBUG\MAIN.OBJ
^D:\後期チーム制作\3DGP.00\RANKING.CPP|D:\後期チーム制作\3DGP.00\SCENE_MANAGER.CPP|D:\後期チーム制作\3DGP.00\SCENE_RESULT.CPP|D:\後期チーム制作\3DGP.00\UI.CPP
D:\後期チーム制作\3DGP.00\X64\DEBUG\VC140.PDB
D:\後期チーム制作\3DGP.00\X64\DEBUG\VC140.IDB
D:\後期チーム制作\3DGP.00\X64\DEBUG\UI.OBJ
D:\後期チーム制作\3DGP.00\X64\DEBUG\SCENE_MANAGER.OBJ
D:\後期チーム制作\3DGP.00\X64\DEBUG\SCENE_RESULT.OBJ
D:\後期チーム制作\3DGP.00\X64\DEBUG\RANKING.OBJ
^D:\後期チーム制作\3DGP.00\RANKING.CPP|D:\後期チーム制作\3DGP.00\SCENE_RESULT.CPP
D:\後期チーム制作\3DGP.00\X64\DEBUG\VC140.PDB
D:\後期チーム制作\3DGP.00\X64\DEBUG\VC140.IDB
D:\後期チーム制作\3DGP.00\X64\DEBUG\RANKING.OBJ
D:\後期チーム制作\3DGP.00\X64\DEBUG\SCENE_RESULT.OBJ
^D:\後期チーム制作\3DGP.00\FRAMEWORK.CPP|D:\後期チーム制作\3DGP.00\GOAL_PRODUCTION.CPP|D:\後期チーム制作\3DGP.00\PLAYER.CPP|D:\後期チーム制作\3DGP.00\RANKING.CPP|D:\後期チーム制作\3DGP.00\SCENE_GAME.CPP|D:\後期チーム制作\3DGP.00\SCENE_MANAGER.CPP|D:\後期チーム制作\3DGP.00\SCENE_OVER.CPP|D:\後期チーム制作\3DGP.00\SCENE_RESULT.CPP|D:\後期チーム制作\3DGP.00\SCENE_TITLE.CPP|D:\後期チーム制作\3DGP.00\STAGE_MANAGER.CPP|D:\後期チーム制作\3DGP.00\UI.CPP
D:\後期チーム制作\3DGP.00\X64\DEBUG\VC140.PDB
D:\後期チーム制作\3DGP.00\X64\DEBUG\VC140.IDB
D:\後期チーム制作\3DGP.00\X64\DEBUG\PLAYER.OBJ
D:\後期チーム制作\3DGP.00\X64\DEBUG\RANKING.OBJ
D:\後期チーム制作\3DGP.00\X64\DEBUG\UI.OBJ
D:\後期チーム制作\3DGP.00\X64\DEBUG\FRAMEWORK.OBJ
D:\後期チーム制作\3DGP.00\X64\DEBUG\GOAL_PRODUCTION.OBJ
D:\後期チーム制作\3DGP.00\X64\DEBUG\SCENE_GAME.OBJ
D:\後期チーム制作\3DGP.00\X64\DEBUG\SCENE_MANAGER.OBJ
D:\後期チーム制作\3DGP.00\X64\DEBUG\SCENE_OVER.OBJ
D:\後期チーム制作\3DGP.00\X64\DEBUG\SCENE_RESULT.OBJ
D:\後期チーム制作\3DGP.00\X64\DEBUG\SCENE_TITLE.OBJ
D:\後期チーム制作\3DGP.00\X64\DEBUG\STAGE_MANAGER.OBJ
^D:\後期チーム制作\3DGP.00\RANKING.CPP|D:\後期チーム制作\3DGP.00\SCENE_MANAGER.CPP|D:\後期チーム制作\3DGP.00\SCENE_OVER.CPP|D:\後期チーム制作\3DGP.00\SCENE_RESULT.CPP|D:\後期チーム制作\3DGP.00\UI.CPP
D:\後期チーム制作\3DGP.00\X64\DEBUG\VC140.PDB
D:\後期チーム制作\3DGP.00\X64\DEBUG\VC140.IDB
D:\後期チーム制作\3DGP.00\X64\DEBUG\UI.OBJ
D:\後期チーム制作\3DGP.00\X64\DEBUG\SCENE_MANAGER.OBJ
D:\後期チーム制作\3DGP.00\X64\DEBUG\SCENE_OVER.OBJ
D:\後期チーム制作\3DGP.00\X64\DEBUG\SCENE_RESULT.OBJ
D:\後期チーム制作\3DGP.00\X64\DEBUG\RANKING.OBJ
^D:\後期チーム制作\3DGP.00\SCENE_GAME.CPP|D:\後期チーム制作\3DGP.00\SCENE_OVER.CPP
D:\後期チーム制作\3DGP.00\X64\DEBUG\VC140.PDB
D:\後期チーム制作\3DGP.00\X64\DEBUG\VC140.IDB
D:\後期チーム制作\3DGP.00\X64\DEBUG\SCENE_GAME.OBJ
^D:\後期チーム制作\3DGP.00\RANKING.CPP|D:\後期チーム制作\3DGP.00\SCENE_GAME.CPP
D:\後期チーム制作\3DGP.00\X64\DEBUG\VC140.PDB
D:\後期チーム制作\3DGP.00\X64\DEBUG\VC140.IDB
D:\後期チーム制作\3DGP.00\X64\DEBUG\RANKING.OBJ
D:\後期チーム制作\3DGP.00\X64\DEBUG\SCENE_GAME.OBJ
^D:\後期チーム制作\3DGP.00\FRAMEWORK.CPP|D:\後期チーム制作\3DGP.00\GOAL_PRODUCTION.CPP|D:\後期チーム制作\3DGP.00\MAIN.CPP|D:\後期チーム制作\3DGP.00\PLAYER.CPP|D:\後期チーム制作\3DGP.00\RANKING.CPP|D:\後期チーム制作\3DGP.00\SCENE_GAME.CPP|D:\後期チーム制作\3DGP.00\SCENE_MANAGER.CPP|D:\後期チーム制作\3DGP.00\SCENE_OVER.CPP|D:\後期チーム制作\3DGP.00\SCENE_RESULT.CPP|D:\後期チーム制作\3DGP.00\SCENE_TITLE.CPP|D:\後期チーム制作\3DGP.00\SPRITE.CPP|D:\後期チーム制作\3DGP.00\STAGE_MANAGER.CPP|D:\後期チーム制作\3DGP.00\UI.CPP
D:\後期チーム制作\3DGP.00\X64\DEBUG\VC140.PDB
D:\後期チーム制作\3DGP.00\X64\DEBUG\VC140.IDB
D:\後期チーム制作\3DGP.00\X64\DEBUG\PLAYER.OBJ
D:\後期チーム制作\3DGP.00\X64\DEBUG\RANKING.OBJ
D:\後期チーム制作\3DGP.00\X64\DEBUG\UI.OBJ
D:\後期チーム制作\3DGP.00\X64\DEBUG\FRAMEWORK.OBJ
D:\後期チーム制作\3DGP.00\X64\DEBUG\GOAL_PRODUCTION.OBJ
D:\後期チーム制作\3DGP.00\X64\DEBUG\MAIN.OBJ
D:\後期チーム制作\3DGP.00\X64\DEBUG\SCENE_GAME.OBJ
D:\後期チーム制作\3DGP.00\X64\DEBUG\SCENE_MANAGER.OBJ
D:\後期チーム制作\3DGP.00\X64\DEBUG\SCENE_RESULT.OBJ
D:\後期チーム制作\3DGP.00\X64\DEBUG\SCENE_TITLE.OBJ
D:\後期チーム制作\3DGP.00\X64\DEBUG\SPRITE.OBJ
D:\後期チーム制作\3DGP.00\X64\DEBUG\STAGE_MANAGER.OBJ
D:\後期チーム制作\3DGP.00\X64\DEBUG\SCENE_OVER.OBJ
^D:\後期チーム制作\3DGP.00\BOARD.CPP|D:\後期チーム制作\3DGP.00\GEOMETRIC_PRIMITIVE.CPP|D:\後期チーム制作\3DGP.00\GOAL_PRODUCTION.CPP|D:\後期チーム制作\3DGP.00\MODEL_RENDERER.CPP|D:\後期チーム制作\3DGP.00\PLAYER.CPP|D:\後期チーム制作\3DGP.00\RANKING.CPP|D:\後期チーム制作\3DGP.00\SCENE_GAME.CPP|D:\後期チーム制作\3DGP.00\SCENE_MANAGER.CPP|D:\後期チーム制作\3DGP.00\SCENE_OVER.CPP|D:\後期チーム制作\3DGP.00\SCENE_RESULT.CPP|D:\後期チーム制作\3DGP.00\SCENE_TITLE.CPP|D:\後期チーム制作\3DGP.00\SKINNED_MESH.CPP|D:\後期チーム制作\3DGP.00\SPRITE.CPP|D:\後期チーム制作\3DGP.00\STAGE_MANAGER.CPP|D:\後期チーム制作\3DGP.00\STATIC_MESH.CPP|D:\後期チーム制作\3DGP.00\UI.CPP
D:\後期チーム制作\3DGP.00\X64\DEBUG\VC140.PDB
D:\後期チーム制作\3DGP.00\X64\DEBUG\VC140.IDB
D:\後期チーム制作\3DGP.00\X64\DEBUG\BOARD.OBJ
D:\後期チーム制作\3DGP.00\X64\DEBUG\GEOMETRIC_PRIMITIVE.OBJ
D:\後期チーム制作\3DGP.00\X64\DEBUG\PLAYER.OBJ
D:\後期チーム制作\3DGP.00\X64\DEBUG\RANKING.OBJ
D:\後期チーム制作\3DGP.00\X64\DEBUG\GOAL_PRODUCTION.OBJ
D:\後期チーム制作\3DGP.00\X64\DEBUG\MODEL_RENDERER.OBJ
D:\後期チーム制作\3DGP.00\X64\DEBUG\SCENE_GAME.OBJ
D:\後期チーム制作\3DGP.00\X64\DEBUG\SCENE_MANAGER.OBJ
D:\後期チーム制作\3DGP.00\X64\DEBUG\SCENE_OVER.OBJ
D:\後期チーム制作\3DGP.00\X64\DEBUG\SCENE_RESULT.OBJ
D:\後期チーム制作\3DGP.00\X64\DEBUG\SCENE_TITLE.OBJ
D:\後期チーム制作\3DGP.00\X64\DEBUG\SKINNED_MESH.OBJ
D:\後期チーム制作\3DGP.00\X64\DEBUG\SPRITE.OBJ
D:\後期チーム制作\3DGP.00\X64\DEBUG\STAGE_MANAGER.OBJ
D:\後期チーム制作\3DGP.00\X64\DEBUG\STATIC_MESH.OBJ
D:\後期チーム制作\3DGP.00\X64\DEBUG\UI.OBJ
^D:\後期チーム制作\3DGP.00\FADO_OUT.CPP
D:\後期チーム制作\3DGP.00\X64\DEBUG\VC140.PDB
D:\後期チーム制作\3DGP.00\X64\DEBUG\VC140.IDB
D:\後期チーム制作\3DGP.00\X64\DEBUG\FADO_OUT.OBJ
