^D:\後期チーム制作\3DGP.00\DIRECTXTK-MASTER\BIN\DESKTOP_2015\X64\DEBUG\DIRECTXTK.LIB|D:\後期チーム制作\3DGP.00\X64\DEBUG\BACKGROUNDOBJ.OBJ|D:\後期チーム制作\3DGP.00\X64\DEBUG\BLENDSTATE.OBJ|D:\後期チーム制作\3DGP.00\X64\DEBUG\BOARD.OBJ|D:\後期チーム制作\3DGP.00\X64\DEBUG\CAMERA.OBJ|D:\後期チーム制作\3DGP.00\X64\DEBUG\COLLISION.OBJ|D:\後期チーム制作\3DGP.00\X64\DEBUG\FADO_OUT.OBJ|D:\後期チーム制作\3DGP.00\X64\DEBUG\FBX_LOAD.OBJ|D:\後期チーム制作\3DGP.00\X64\DEBUG\FRAMEWORK.OBJ|D:\後期チーム制作\3DGP.00\X64\DEBUG\GEOMETRIC_PRIMITIVE.OBJ|D:\後期チーム制作\3DGP.00\X64\DEBUG\GOAL_PRODUCTION.OBJ|D:\後期チーム制作\3DGP.00\X64\DEBUG\IMGUI.OBJ|D:\後期チーム制作\3DGP.00\X64\DEBUG\IMGUI_DEMO.OBJ|D:\後期チーム制作\3DGP.00\X64\DEBUG\IMGUI_DRAW.OBJ|D:\後期チーム制作\3DGP.00\X64\DEBUG\IMGUI_IMPL_DX11.OBJ|D:\後期チーム制作\3DGP.00\X64\DEBUG\IMGUI_IMPL_WIN32.OBJ|D:\後期チーム制作\3DGP.00\X64\DEBUG\IMGUI_WIDGETS.OBJ|D:\後期チーム制作\3DGP.00\X64\DEBUG\LOGGER.OBJ|D:\後期チーム制作\3DGP.00\X64\DEBUG\MAIN.OBJ|D:\後期チーム制作\3DGP.00\X64\DEBUG\MODEL.OBJ|D:\後期チーム制作\3DGP.00\X64\DEBUG\MODEL_RENDERER.OBJ|D:\後期チーム制作\3DGP.00\X64\DEBUG\MODEL_RESOURCE.OBJ|D:\後期チーム制作\3DGP.00\X64\DEBUG\PARTICLE.OBJ|D:\後期チーム制作\3DGP.00\X64\DEBUG\PLAYER.OBJ|D:\後期チーム制作\3DGP.00\X64\DEBUG\RANKING.OBJ|D:\後期チーム制作\3DGP.00\X64\DEBUG\RESOURCEMANAGER.OBJ|D:\後期チーム制作\3DGP.00\X64\DEBUG\SCENE_GAME.OBJ|D:\後期チーム制作\3DGP.00\X64\DEBUG\SCENE_MANAGER.OBJ|D:\後期チーム制作\3DGP.00\X64\DEBUG\SCENE_OVER.OBJ|D:\後期チーム制作\3DGP.00\X64\DEBUG\SCENE_RESULT.OBJ|D:\後期チーム制作\3DGP.00\X64\DEBUG\SCENE_TITLE.OBJ|D:\後期チーム制作\3DGP.00\X64\DEBUG\SKINNED_MESH.OBJ|D:\後期チーム制作\3DGP.00\X64\DEBUG\SOUND.OBJ|D:\後期チーム制作\3DGP.00\X64\DEBUG\SOUND_BUFFER.OBJ|D:\後期チーム制作\3DGP.00\X64\DEBUG\SPRITE.OBJ|D:\後期チーム制作\3DGP.00\X64\DEBUG\STAGEOBJ.OBJ|D:\後期チーム制作\3DGP.00\X64\DEBUG\STAGE_MANAGER.OBJ|D:\後期チーム制作\3DGP.00\X64\DEBUG\STATIC_MESH.OBJ|D:\後期チーム制作\3DGP.00\X64\DEBUG\UI.OBJ
C:\WINDOWS\GLOBALIZATION\SORTING\SORTDEFAULT.NLS
D:\後期チーム制作\3DGP.00\DIRECTXTK-MASTER\BIN\DESKTOP_2015\X64\DEBUG\DIRECTXTK.LIB
C:\PROGRAM FILES (X86)\WINDOWS KITS\8.1\LIB\WINV6.3\UM\X64\DXGI.LIB
C:\PROGRAM FILES (X86)\WINDOWS KITS\8.1\LIB\WINV6.3\UM\X64\D3D11.LIB
D:\後期チーム制作\3DGP.00\FBX SDK\2016.1.2\LIB\VS2015\X64\DEBUG\LIBFBXSDK-MD.LIB
C:\PROGRAM FILES (X86)\WINDOWS KITS\8.1\LIB\WINV6.3\UM\X64\KERNEL32.LIB
C:\PROGRAM FILES (X86)\WINDOWS KITS\8.1\LIB\WINV6.3\UM\X64\USER32.LIB
C:\PROGRAM FILES (X86)\WINDOWS KITS\8.1\LIB\WINV6.3\UM\X64\GDI32.LIB
C:\PROGRAM FILES (X86)\WINDOWS KITS\8.1\LIB\WINV6.3\UM\X64\WINSPOOL.LIB
C:\PROGRAM FILES (X86)\WINDOWS KITS\8.1\LIB\WINV6.3\UM\X64\COMDLG32.LIB
C:\PROGRAM FILES (X86)\WINDOWS KITS\8.1\LIB\WINV6.3\UM\X64\ADVAPI32.LIB
C:\PROGRAM FILES (X86)\WINDOWS KITS\8.1\LIB\WINV6.3\UM\X64\SHELL32.LIB
C:\PROGRAM FILES (X86)\WINDOWS KITS\8.1\LIB\WINV6.3\UM\X64\OLE32.LIB
C:\PROGRAM FILES (X86)\WINDOWS KITS\8.1\LIB\WINV6.3\UM\X64\OLEAUT32.LIB
C:\PROGRAM FILES (X86)\WINDOWS KITS\8.1\LIB\WINV6.3\UM\X64\UUID.LIB
C:\PROGRAM FILES (X86)\WINDOWS KITS\8.1\LIB\WINV6.3\UM\X64\ODBC32.LIB
C:\PROGRAM FILES (X86)\WINDOWS KITS\8.1\LIB\WINV6.3\UM\X64\ODBCCP32.LIB
D:\後期チーム制作\3DGP.00\X64\DEBUG\BACKGROUNDOBJ.OBJ
D:\後期チーム制作\3DGP.00\X64\DEBUG\BLENDSTATE.OBJ
D:\後期チーム制作\3DGP.00\X64\DEBUG\BOARD.OBJ
D:\後期チーム制作\3DGP.00\X64\DEBUG\CAMERA.OBJ
D:\後期チーム制作\3DGP.00\X64\DEBUG\COLLISION.OBJ
D:\後期チーム制作\3DGP.00\X64\DEBUG\FADO_OUT.OBJ
D:\後期チーム制作\3DGP.00\X64\DEBUG\FBX_LOAD.OBJ
D:\後期チーム制作\3DGP.00\X64\DEBUG\GEOMETRIC_PRIMITIVE.OBJ
D:\後期チーム制作\3DGP.00\X64\DEBUG\GOAL_PRODUCTION.OBJ
D:\後期チーム制作\3DGP.00\X64\DEBUG\IMGUI.OBJ
D:\後期チーム制作\3DGP.00\X64\DEBUG\IMGUI_DEMO.OBJ
D:\後期チーム制作\3DGP.00\X64\DEBUG\IMGUI_DRAW.OBJ
D:\後期チーム制作\3DGP.00\X64\DEBUG\IMGUI_IMPL_DX11.OBJ
D:\後期チーム制作\3DGP.00\X64\DEBUG\IMGUI_IMPL_WIN32.OBJ
D:\後期チーム制作\3DGP.00\X64\DEBUG\IMGUI_WIDGETS.OBJ
D:\後期チーム制作\3DGP.00\X64\DEBUG\LOGGER.OBJ
D:\後期チーム制作\3DGP.00\X64\DEBUG\MAIN.OBJ
D:\後期チーム制作\3DGP.00\X64\DEBUG\FRAMEWORK.OBJ
D:\後期チーム制作\3DGP.00\X64\DEBUG\MODEL.OBJ
D:\後期チーム制作\3DGP.00\X64\DEBUG\MODEL_RENDERER.OBJ
D:\後期チーム制作\3DGP.00\X64\DEBUG\MODEL_RESOURCE.OBJ
D:\後期チーム制作\3DGP.00\X64\DEBUG\PARTICLE.OBJ
D:\後期チーム制作\3DGP.00\X64\DEBUG\PLAYER.OBJ
D:\後期チーム制作\3DGP.00\X64\DEBUG\RANKING.OBJ
D:\後期チーム制作\3DGP.00\X64\DEBUG\RESOURCEMANAGER.OBJ
D:\後期チーム制作\3DGP.00\X64\DEBUG\SCENE_GAME.OBJ
D:\後期チーム制作\3DGP.00\X64\DEBUG\SCENE_MANAGER.OBJ
D:\後期チーム制作\3DGP.00\X64\DEBUG\SCENE_OVER.OBJ
D:\後期チーム制作\3DGP.00\X64\DEBUG\SCENE_RESULT.OBJ
D:\後期チーム制作\3DGP.00\X64\DEBUG\SCENE_TITLE.OBJ
D:\後期チーム制作\3DGP.00\X64\DEBUG\SKINNED_MESH.OBJ
D:\後期チーム制作\3DGP.00\X64\DEBUG\SOUND.OBJ
D:\後期チーム制作\3DGP.00\X64\DEBUG\SOUND_BUFFER.OBJ
D:\後期チーム制作\3DGP.00\X64\DEBUG\SPRITE.OBJ
D:\後期チーム制作\3DGP.00\X64\DEBUG\STAGEOBJ.OBJ
D:\後期チーム制作\3DGP.00\X64\DEBUG\STAGE_MANAGER.OBJ
D:\後期チーム制作\3DGP.00\X64\DEBUG\STATIC_MESH.OBJ
D:\後期チーム制作\3DGP.00\X64\DEBUG\UI.OBJ
C:\PROGRAM FILES (X86)\MICROSOFT VISUAL STUDIO 14.0\VC\LIB\AMD64\MSVCPRTD.LIB
C:\PROGRAM FILES (X86)\MICROSOFT VISUAL STUDIO 14.0\VC\LIB\AMD64\MSVCRTD.LIB
C:\PROGRAM FILES (X86)\MICROSOFT VISUAL STUDIO 14.0\VC\LIB\AMD64\OLDNAMES.LIB
C:\PROGRAM FILES (X86)\WINDOWS KITS\8.1\LIB\WINV6.3\UM\X64\IMM32.LIB
C:\PROGRAM FILES (X86)\WINDOWS KITS\8.1\LIB\WINV6.3\UM\X64\D3DCOMPILER.LIB
C:\PROGRAM FILES (X86)\WINDOWS KITS\8.1\LIB\WINV6.3\UM\X64\XAUDIO2.LIB
C:\PROGRAM FILES (X86)\WINDOWS KITS\8.1\LIB\WINV6.3\UM\X64\DXGUID.LIB
C:\PROGRAM FILES (X86)\MICROSOFT VISUAL STUDIO 14.0\VC\LIB\AMD64\VCRUNTIMED.LIB
C:\PROGRAM FILES (X86)\WINDOWS KITS\10\LIB\10.0.10150.0\UCRT\X64\UCRTD.LIB
C:\PROGRAM FILES (X86)\WINDOWS KITS\8.1\BIN\X86\RC.EXE
C:\PROGRAM FILES (X86)\MICROSOFT VISUAL STUDIO 14.0\VC\BIN\CVTRES.EXE
C:\WINDOWS\SYSTEM32\TZRES.DLL
