^D:\描画エンジンプログラムⅠ\3DGP.00\DIRECTXTK-MASTER\BIN\DESKTOP_2015\X64\DEBUG\DIRECTXTK.LIB|D:\描画エンジンプログラムⅠ\3DGP.00\X64\DEBUG\BLENDSTATE.OBJ|D:\描画エンジンプログラムⅠ\3DGP.00\X64\DEBUG\FRAMEWORK.OBJ|D:\描画エンジンプログラムⅠ\3DGP.00\X64\DEBUG\GEOMETRIC_PRIMITIVE.OBJ|D:\描画エンジンプログラムⅠ\3DGP.00\X64\DEBUG\MAIN.OBJ|D:\描画エンジンプログラムⅠ\3DGP.00\X64\DEBUG\RESOURCEMANAGER.OBJ|D:\描画エンジンプログラムⅠ\3DGP.00\X64\DEBUG\SKINNED_MESH.OBJ|D:\描画エンジンプログラムⅠ\3DGP.00\X64\DEBUG\SPRITE.OBJ|D:\描画エンジンプログラムⅠ\3DGP.00\X64\DEBUG\STATIC_MESH.OBJ
/OUT:"D:\描画エンジンプログラムⅠ\3DGP.00\X64\DEBUG\3DGP.EXE" /INCREMENTAL /NOLOGO /LIBPATH:".\DIRECTXTK-MASTER\BIN\DESKTOP_2015\X64\DEBUG" /LIBPATH:".\FBX SDK\2016.1.2\LIB\VS2015\X64\DEBUG" DIRECTXTK.LIB DXGI.LIB D3D11.LIB "LIBFBXSDK-MD.LIB" KERNEL32.LIB USER32.LIB GDI32.LIB WINSPOOL.LIB COMDLG32.LIB ADVAPI32.LIB SHELL32.LIB OLE32.LIB OLEAUT32.LIB UUID.LIB ODBC32.LIB ODBCCP32.LIB /MANIFEST /MANIFESTUAC:"level='asInvoker' uiAccess='false'" /manifest:embed /DEBUG /PDB:"D:\描画エンジンプログラムⅠ\3DGP.00\X64\DEBUG\3DGP.PDB" /SUBSYSTEM:WINDOWS /TLBID:1 /DYNAMICBASE /NXCOMPAT /IMPLIB:"D:\描画エンジンプログラムⅠ\3DGP.00\X64\DEBUG\3DGP.LIB" X64\DEBUG\BLENDSTATE.OBJX64\DEBUG\GEOMETRIC_PRIMITIVE.OBJX64\DEBUG\MAIN.OBJX64\DEBUG\FRAMEWORK.OBJX64\DEBUG\RESOURCEMANAGER.OBJX64\DEBUG\SKINNED_MESH.OBJX64\DEBUG\SPRITE.OBJX64\DEBUG\STATIC_MESH.OBJ"D:\描画エンジンプログラムⅠ\3DGP.00\DIRECTXTK-MASTER\BIN\DESKTOP_2015\X64\DEBUG\DIRECTXTK.LIB"
^D:\描画エンジンプログラムⅠ\3DPG.23\3DGP.00\DIRECTXTK-MASTER\BIN\DESKTOP_2015\X64\DEBUG\DIRECTXTK.LIB|D:\描画エンジンプログラムⅠ\3DPG.23\3DGP.00\X64\DEBUG\BLENDSTATE.OBJ|D:\描画エンジンプログラムⅠ\3DPG.23\3DGP.00\X64\DEBUG\FRAMEWORK.OBJ|D:\描画エンジンプログラムⅠ\3DPG.23\3DGP.00\X64\DEBUG\GEOMETRIC_PRIMITIVE.OBJ|D:\描画エンジンプログラムⅠ\3DPG.23\3DGP.00\X64\DEBUG\MAIN.OBJ|D:\描画エンジンプログラムⅠ\3DPG.23\3DGP.00\X64\DEBUG\RESOURCEMANAGER.OBJ|D:\描画エンジンプログラムⅠ\3DPG.23\3DGP.00\X64\DEBUG\SKINNED_MESH.OBJ|D:\描画エンジンプログラムⅠ\3DPG.23\3DGP.00\X64\DEBUG\SPRITE.OBJ|D:\描画エンジンプログラムⅠ\3DPG.23\3DGP.00\X64\DEBUG\STATIC_MESH.OBJ
/OUT:"D:\描画エンジンプログラムⅠ\3DPG.23\3DGP.00\X64\DEBUG\3DGP.EXE" /INCREMENTAL /NOLOGO /LIBPATH:".\DIRECTXTK-MASTER\BIN\DESKTOP_2015\X64\DEBUG" /LIBPATH:".\FBX SDK\2016.1.2\LIB\VS2015\X64\DEBUG" DIRECTXTK.LIB DXGI.LIB D3D11.LIB "LIBFBXSDK-MD.LIB" KERNEL32.LIB USER32.LIB GDI32.LIB WINSPOOL.LIB COMDLG32.LIB ADVAPI32.LIB SHELL32.LIB OLE32.LIB OLEAUT32.LIB UUID.LIB ODBC32.LIB ODBCCP32.LIB /MANIFEST /MANIFESTUAC:"level='asInvoker' uiAccess='false'" /manifest:embed /DEBUG /PDB:"D:\描画エンジンプログラムⅠ\3DPG.23\3DGP.00\X64\DEBUG\3DGP.PDB" /SUBSYSTEM:WINDOWS /TLBID:1 /DYNAMICBASE /NXCOMPAT /IMPLIB:"D:\描画エンジンプログラムⅠ\3DPG.23\3DGP.00\X64\DEBUG\3DGP.LIB" X64\DEBUG\BLENDSTATE.OBJX64\DEBUG\GEOMETRIC_PRIMITIVE.OBJX64\DEBUG\MAIN.OBJX64\DEBUG\FRAMEWORK.OBJX64\DEBUG\RESOURCEMANAGER.OBJX64\DEBUG\SKINNED_MESH.OBJX64\DEBUG\SPRITE.OBJX64\DEBUG\STATIC_MESH.OBJ"D:\描画エンジンプログラムⅠ\3DPG.23\3DGP.00\DIRECTXTK-MASTER\BIN\DESKTOP_2015\X64\DEBUG\DIRECTXTK.LIB"
^D:\チーム制作3D\2年後期1\3DGP.00\DIRECTXTK-MASTER\BIN\DESKTOP_2015\X64\DEBUG\DIRECTXTK.LIB|D:\チーム制作3D\2年後期1\3DGP.00\X64\DEBUG\BLENDSTATE.OBJ|D:\チーム制作3D\2年後期1\3DGP.00\X64\DEBUG\CAMERA.OBJ|D:\チーム制作3D\2年後期1\3DGP.00\X64\DEBUG\FBX_LOAD.OBJ|D:\チーム制作3D\2年後期1\3DGP.00\X64\DEBUG\FRAMEWORK.OBJ|D:\チーム制作3D\2年後期1\3DGP.00\X64\DEBUG\GEOMETRIC_PRIMITIVE.OBJ|D:\チーム制作3D\2年後期1\3DGP.00\X64\DEBUG\IMGUI.OBJ|D:\チーム制作3D\2年後期1\3DGP.00\X64\DEBUG\IMGUI_DEMO.OBJ|D:\チーム制作3D\2年後期1\3DGP.00\X64\DEBUG\IMGUI_DRAW.OBJ|D:\チーム制作3D\2年後期1\3DGP.00\X64\DEBUG\IMGUI_IMPL_DX11.OBJ|D:\チーム制作3D\2年後期1\3DGP.00\X64\DEBUG\IMGUI_IMPL_WIN32.OBJ|D:\チーム制作3D\2年後期1\3DGP.00\X64\DEBUG\IMGUI_WIDGETS.OBJ|D:\チーム制作3D\2年後期1\3DGP.00\X64\DEBUG\LOGGER.OBJ|D:\チーム制作3D\2年後期1\3DGP.00\X64\DEBUG\MAIN.OBJ|D:\チーム制作3D\2年後期1\3DGP.00\X64\DEBUG\MODEL.OBJ|D:\チーム制作3D\2年後期1\3DGP.00\X64\DEBUG\MODEL_RENDERER.OBJ|D:\チーム制作3D\2年後期1\3DGP.00\X64\DEBUG\MODEL_RESOURCE.OBJ|D:\チーム制作3D\2年後期1\3DGP.00\X64\DEBUG\RESOURCEMANAGER.OBJ|D:\チーム制作3D\2年後期1\3DGP.00\X64\DEBUG\SCENE_GAME.OBJ|D:\チーム制作3D\2年後期1\3DGP.00\X64\DEBUG\SCENE_MANAGER.OBJ|D:\チーム制作3D\2年後期1\3DGP.00\X64\DEBUG\SCENE_RESULT.OBJ|D:\チーム制作3D\2年後期1\3DGP.00\X64\DEBUG\SCENE_TITLE.OBJ|D:\チーム制作3D\2年後期1\3DGP.00\X64\DEBUG\SKINNED_MESH.OBJ|D:\チーム制作3D\2年後期1\3DGP.00\X64\DEBUG\SOUND.OBJ|D:\チーム制作3D\2年後期1\3DGP.00\X64\DEBUG\SOUND_BUFFER.OBJ|D:\チーム制作3D\2年後期1\3DGP.00\X64\DEBUG\SPRITE.OBJ|D:\チーム制作3D\2年後期1\3DGP.00\X64\DEBUG\STATIC_MESH.OBJ
/OUT:"D:\チーム制作3D\2年後期1\3DGP.00\X64\DEBUG\3DGP.EXE" /INCREMENTAL /NOLOGO /LIBPATH:".\DIRECTXTK-MASTER\BIN\DESKTOP_2015\X64\DEBUG" /LIBPATH:".\FBX SDK\2016.1.2\LIB\VS2015\X64\DEBUG" DIRECTXTK.LIB DXGI.LIB D3D11.LIB "LIBFBXSDK-MD.LIB" KERNEL32.LIB USER32.LIB GDI32.LIB WINSPOOL.LIB COMDLG32.LIB ADVAPI32.LIB SHELL32.LIB OLE32.LIB OLEAUT32.LIB UUID.LIB ODBC32.LIB ODBCCP32.LIB /MANIFEST /MANIFESTUAC:"level='asInvoker' uiAccess='false'" /manifest:embed /DEBUG /PDB:"D:\チーム制作3D\2年後期1\3DGP.00\X64\DEBUG\3DGP.PDB" /SUBSYSTEM:WINDOWS /TLBID:1 /DYNAMICBASE /NXCOMPAT /IMPLIB:"D:\チーム制作3D\2年後期1\3DGP.00\X64\DEBUG\3DGP.LIB" X64\DEBUG\BLENDSTATE.OBJX64\DEBUG\CAMERA.OBJX64\DEBUG\FBX_LOAD.OBJX64\DEBUG\GEOMETRIC_PRIMITIVE.OBJX64\DEBUG\IMGUI.OBJX64\DEBUG\IMGUI_DEMO.OBJX64\DEBUG\IMGUI_DRAW.OBJX64\DEBUG\IMGUI_IMPL_DX11.OBJX64\DEBUG\IMGUI_IMPL_WIN32.OBJX64\DEBUG\IMGUI_WIDGETS.OBJX64\DEBUG\LOGGER.OBJX64\DEBUG\MAIN.OBJX64\DEBUG\FRAMEWORK.OBJX64\DEBUG\MODEL.OBJX64\DEBUG\MODEL_RENDERER.OBJX64\DEBUG\MODEL_RESOURCE.OBJX64\DEBUG\RESOURCEMANAGER.OBJX64\DEBUG\SCENE_GAME.OBJX64\DEBUG\SCENE_MANAGER.OBJX64\DEBUG\SCENE_RESULT.OBJX64\DEBUG\SCENE_TITLE.OBJX64\DEBUG\SKINNED_MESH.OBJX64\DEBUG\SOUND.OBJX64\DEBUG\SOUND_BUFFER.OBJX64\DEBUG\SPRITE.OBJX64\DEBUG\STATIC_MESH.OBJ"D:\チーム制作3D\2年後期1\3DGP.00\DIRECTXTK-MASTER\BIN\DESKTOP_2015\X64\DEBUG\DIRECTXTK.LIB"
^D:\後期チーム制作\3DGP.00\DIRECTXTK-MASTER\BIN\DESKTOP_2015\X64\DEBUG\DIRECTXTK.LIB|D:\後期チーム制作\3DGP.00\X64\DEBUG\BACKGROUNDOBJ.OBJ|D:\後期チーム制作\3DGP.00\X64\DEBUG\BLENDSTATE.OBJ|D:\後期チーム制作\3DGP.00\X64\DEBUG\BOARD.OBJ|D:\後期チーム制作\3DGP.00\X64\DEBUG\CAMERA.OBJ|D:\後期チーム制作\3DGP.00\X64\DEBUG\COLLISION.OBJ|D:\後期チーム制作\3DGP.00\X64\DEBUG\FADO_OUT.OBJ|D:\後期チーム制作\3DGP.00\X64\DEBUG\FBX_LOAD.OBJ|D:\後期チーム制作\3DGP.00\X64\DEBUG\FRAMEWORK.OBJ|D:\後期チーム制作\3DGP.00\X64\DEBUG\GEOMETRIC_PRIMITIVE.OBJ|D:\後期チーム制作\3DGP.00\X64\DEBUG\GOAL_PRODUCTION.OBJ|D:\後期チーム制作\3DGP.00\X64\DEBUG\IMGUI.OBJ|D:\後期チーム制作\3DGP.00\X64\DEBUG\IMGUI_DEMO.OBJ|D:\後期チーム制作\3DGP.00\X64\DEBUG\IMGUI_DRAW.OBJ|D:\後期チーム制作\3DGP.00\X64\DEBUG\IMGUI_IMPL_DX11.OBJ|D:\後期チーム制作\3DGP.00\X64\DEBUG\IMGUI_IMPL_WIN32.OBJ|D:\後期チーム制作\3DGP.00\X64\DEBUG\IMGUI_WIDGETS.OBJ|D:\後期チーム制作\3DGP.00\X64\DEBUG\LOGGER.OBJ|D:\後期チーム制作\3DGP.00\X64\DEBUG\MAIN.OBJ|D:\後期チーム制作\3DGP.00\X64\DEBUG\MODEL.OBJ|D:\後期チーム制作\3DGP.00\X64\DEBUG\MODEL_RENDERER.OBJ|D:\後期チーム制作\3DGP.00\X64\DEBUG\MODEL_RESOURCE.OBJ|D:\後期チーム制作\3DGP.00\X64\DEBUG\PARTICLE.OBJ|D:\後期チーム制作\3DGP.00\X64\DEBUG\PLAYER.OBJ|D:\後期チーム制作\3DGP.00\X64\DEBUG\RANKING.OBJ|D:\後期チーム制作\3DGP.00\X64\DEBUG\RESOURCEMANAGER.OBJ|D:\後期チーム制作\3DGP.00\X64\DEBUG\SCENE_GAME.OBJ|D:\後期チーム制作\3DGP.00\X64\DEBUG\SCENE_MANAGER.OBJ|D:\後期チーム制作\3DGP.00\X64\DEBUG\SCENE_OVER.OBJ|D:\後期チーム制作\3DGP.00\X64\DEBUG\SCENE_RESULT.OBJ|D:\後期チーム制作\3DGP.00\X64\DEBUG\SCENE_TITLE.OBJ|D:\後期チーム制作\3DGP.00\X64\DEBUG\SKINNED_MESH.OBJ|D:\後期チーム制作\3DGP.00\X64\DEBUG\SOUND.OBJ|D:\後期チーム制作\3DGP.00\X64\DEBUG\SOUND_BUFFER.OBJ|D:\後期チーム制作\3DGP.00\X64\DEBUG\SPRITE.OBJ|D:\後期チーム制作\3DGP.00\X64\DEBUG\STAGEOBJ.OBJ|D:\後期チーム制作\3DGP.00\X64\DEBUG\STAGE_MANAGER.OBJ|D:\後期チーム制作\3DGP.00\X64\DEBUG\STATIC_MESH.OBJ|D:\後期チーム制作\3DGP.00\X64\DEBUG\UI.OBJ
/OUT:"D:\後期チーム制作\3DGP.00\X64\DEBUG\3DGP.EXE" /INCREMENTAL /NOLOGO /LIBPATH:".\DIRECTXTK-MASTER\BIN\DESKTOP_2015\X64\DEBUG" /LIBPATH:".\FBX SDK\2016.1.2\LIB\VS2015\X64\DEBUG" DIRECTXTK.LIB DXGI.LIB D3D11.LIB "LIBFBXSDK-MD.LIB" KERNEL32.LIB USER32.LIB GDI32.LIB WINSPOOL.LIB COMDLG32.LIB ADVAPI32.LIB SHELL32.LIB OLE32.LIB OLEAUT32.LIB UUID.LIB ODBC32.LIB ODBCCP32.LIB /MANIFEST /MANIFESTUAC:"level='asInvoker' uiAccess='false'" /manifest:embed /Debug /PDB:"D:\後期チーム制作\3DGP.00\X64\DEBUG\3DGP.PDB" /SUBSYSTEM:WINDOWS /TLBID:1 /DYNAMICBASE /NXCOMPAT /IMPLIB:"D:\後期チーム制作\3DGP.00\X64\DEBUG\3DGP.LIB" X64\DEBUG\BACKGROUNDOBJ.OBJX64\DEBUG\BLENDSTATE.OBJX64\DEBUG\BOARD.OBJX64\DEBUG\CAMERA.OBJX64\DEBUG\COLLISION.OBJX64\DEBUG\FADO_OUT.OBJX64\DEBUG\FBX_LOAD.OBJX64\DEBUG\GEOMETRIC_PRIMITIVE.OBJX64\DEBUG\GOAL_PRODUCTION.OBJX64\DEBUG\IMGUI.OBJX64\DEBUG\IMGUI_DEMO.OBJX64\DEBUG\IMGUI_DRAW.OBJX64\DEBUG\IMGUI_IMPL_DX11.OBJX64\DEBUG\IMGUI_IMPL_WIN32.OBJX64\DEBUG\IMGUI_WIDGETS.OBJX64\DEBUG\LOGGER.OBJX64\DEBUG\MAIN.OBJX64\DEBUG\FRAMEWORK.OBJX64\DEBUG\MODEL.OBJX64\DEBUG\MODEL_RENDERER.OBJX64\DEBUG\MODEL_RESOURCE.OBJX64\DEBUG\PARTICLE.OBJX64\DEBUG\PLAYER.OBJX64\DEBUG\RANKING.OBJX64\DEBUG\RESOURCEMANAGER.OBJX64\DEBUG\SCENE_GAME.OBJX64\DEBUG\SCENE_MANAGER.OBJX64\DEBUG\SCENE_OVER.OBJX64\DEBUG\SCENE_RESULT.OBJX64\DEBUG\SCENE_TITLE.OBJX64\DEBUG\SKINNED_MESH.OBJX64\DEBUG\SOUND.OBJX64\DEBUG\SOUND_BUFFER.OBJX64\DEBUG\SPRITE.OBJX64\DEBUG\STAGEOBJ.OBJX64\DEBUG\STAGE_MANAGER.OBJX64\DEBUG\STATIC_MESH.OBJX64\DEBUG\UI.OBJ"D:\後期チーム制作\3DGP.00\DIRECTXTK-MASTER\BIN\DESKTOP_2015\X64\DEBUG\DIRECTXTK.LIB"
