^board_ps.hlsl
^board_vs.hlsl
^geometric_primitive_ps.hlsl
^geometric_primitive_vs.hlsl
^model_ps.hlsl
^model_vs.hlsl
^skinned_mesh_ps.hlsl
^skinned_mesh_vs.hlsl
^sprite_ps.hlsl
^sprite_vs.hlsl
^static_mesh_ps.hlsl
^board_ps.hlsl
^board_vs.hlsl
^geometric_primitive_ps.hlsl
^geometric_primitive_vs.hlsl
^model_ps.hlsl
^model_vs.hlsl
^skinned_mesh_ps.hlsl
^skinned_mesh_vs.hlsl
^sprite_ps.hlsl
^sprite_vs.hlsl
^static_mesh_ps.hlsl
^board_ps.hlsl
^board_vs.hlsl
^geometric_primitive_ps.hlsl
^geometric_primitive_vs.hlsl
^model_ps.hlsl
^model_vs.hlsl
^skinned_mesh_ps.hlsl
^skinned_mesh_vs.hlsl
^sprite_ps.hlsl
^sprite_vs.hlsl
^static_mesh_ps.hlsl
^board_ps.hlsl
^board_vs.hlsl
^geometric_primitive_ps.hlsl
^geometric_primitive_vs.hlsl
^model_ps.hlsl
^model_vs.hlsl
^skinned_mesh_ps.hlsl
^skinned_mesh_vs.hlsl
^sprite_ps.hlsl
^sprite_vs.hlsl
^static_mesh_ps.hlsl
^board_ps.hlsl
^board_vs.hlsl
^geometric_primitive_ps.hlsl
^geometric_primitive_vs.hlsl
^model_ps.hlsl
^model_vs.hlsl
^skinned_mesh_ps.hlsl
^skinned_mesh_vs.hlsl
^sprite_ps.hlsl
^sprite_vs.hlsl
^static_mesh_ps.hlsl
^board_ps.hlsl
^board_vs.hlsl
^geometric_primitive_ps.hlsl
^geometric_primitive_vs.hlsl
^model_ps.hlsl
^model_vs.hlsl
^skinned_mesh_ps.hlsl
^skinned_mesh_vs.hlsl
^sprite_ps.hlsl
^sprite_vs.hlsl
^static_mesh_ps.hlsl
^board_ps.hlsl
^board_vs.hlsl
^geometric_primitive_ps.hlsl
^geometric_primitive_vs.hlsl
^model_ps.hlsl
^model_vs.hlsl
^skinned_mesh_ps.hlsl
^skinned_mesh_vs.hlsl
^sprite_ps.hlsl
^sprite_vs.hlsl
^static_mesh_ps.hlsl
^board_ps.hlsl
^board_vs.hlsl
^geometric_primitive_ps.hlsl
^geometric_primitive_vs.hlsl
^model_ps.hlsl
^model_vs.hlsl
^skinned_mesh_ps.hlsl
^skinned_mesh_vs.hlsl
^sprite_ps.hlsl
^sprite_vs.hlsl
^static_mesh_ps.hlsl
^board_ps.hlsl
^board_vs.hlsl
^geometric_primitive_ps.hlsl
^geometric_primitive_vs.hlsl
^model_ps.hlsl
^model_vs.hlsl
^skinned_mesh_ps.hlsl
^skinned_mesh_vs.hlsl
^sprite_ps.hlsl
^sprite_vs.hlsl
^static_mesh_ps.hlsl
^board_ps.hlsl
^board_vs.hlsl
^geometric_primitive_ps.hlsl
^geometric_primitive_vs.hlsl
^model_ps.hlsl
^model_vs.hlsl
^skinned_mesh_ps.hlsl
^skinned_mesh_vs.hlsl
^sprite_ps.hlsl
^sprite_vs.hlsl
^static_mesh_ps.hlsl
^board_ps.hlsl
^board_vs.hlsl
^geometric_primitive_ps.hlsl
^geometric_primitive_vs.hlsl
^model_ps.hlsl
^model_vs.hlsl
^skinned_mesh_ps.hlsl
^skinned_mesh_vs.hlsl
^sprite_ps.hlsl
^sprite_vs.hlsl
^static_mesh_ps.hlsl
^board_ps.hlsl
^board_vs.hlsl
^geometric_primitive_ps.hlsl
^geometric_primitive_vs.hlsl
^model_ps.hlsl
^model_vs.hlsl
^skinned_mesh_ps.hlsl
^skinned_mesh_vs.hlsl
^sprite_ps.hlsl
^sprite_vs.hlsl
^static_mesh_ps.hlsl
^board_ps.hlsl
^board_vs.hlsl
^geometric_primitive_ps.hlsl
^geometric_primitive_vs.hlsl
^model_ps.hlsl
^model_vs.hlsl
^skinned_mesh_ps.hlsl
^skinned_mesh_vs.hlsl
^sprite_ps.hlsl
^sprite_vs.hlsl
^static_mesh_ps.hlsl
^board_ps.hlsl
^board_vs.hlsl
^geometric_primitive_ps.hlsl
^geometric_primitive_vs.hlsl
^model_ps.hlsl
^model_vs.hlsl
^skinned_mesh_ps.hlsl
^skinned_mesh_vs.hlsl
^sprite_ps.hlsl
^sprite_vs.hlsl
^static_mesh_ps.hlsl
^board_ps.hlsl
^board_vs.hlsl
^geometric_primitive_ps.hlsl
^geometric_primitive_vs.hlsl
^model_ps.hlsl
^model_vs.hlsl
^skinned_mesh_ps.hlsl
^skinned_mesh_vs.hlsl
^sprite_ps.hlsl
^sprite_vs.hlsl
^static_mesh_ps.hlsl
^board_ps.hlsl
^board_vs.hlsl
^geometric_primitive_ps.hlsl
^geometric_primitive_vs.hlsl
^model_ps.hlsl
^model_vs.hlsl
^skinned_mesh_ps.hlsl
^skinned_mesh_vs.hlsl
^sprite_ps.hlsl
^sprite_vs.hlsl
^static_mesh_ps.hlsl
^board_ps.hlsl
^board_vs.hlsl
^geometric_primitive_ps.hlsl
^geometric_primitive_vs.hlsl
^model_ps.hlsl
^model_vs.hlsl
^skinned_mesh_ps.hlsl
^skinned_mesh_vs.hlsl
^sprite_ps.hlsl
^sprite_vs.hlsl
^static_mesh_ps.hlsl
^board_ps.hlsl
^board_vs.hlsl
^geometric_primitive_ps.hlsl
^geometric_primitive_vs.hlsl
^model_ps.hlsl
^model_vs.hlsl
^skinned_mesh_ps.hlsl
^skinned_mesh_vs.hlsl
^sprite_ps.hlsl
^sprite_vs.hlsl
^static_mesh_ps.hlsl
^board_ps.hlsl
^board_vs.hlsl
^geometric_primitive_ps.hlsl
^geometric_primitive_vs.hlsl
^model_ps.hlsl
^model_vs.hlsl
^skinned_mesh_ps.hlsl
^skinned_mesh_vs.hlsl
^sprite_ps.hlsl
^sprite_vs.hlsl
^static_mesh_ps.hlsl
^board_ps.hlsl
^board_vs.hlsl
^geometric_primitive_ps.hlsl
^geometric_primitive_vs.hlsl
^model_ps.hlsl
^model_vs.hlsl
^skinned_mesh_ps.hlsl
^skinned_mesh_vs.hlsl
^sprite_ps.hlsl
^sprite_vs.hlsl
^static_mesh_ps.hlsl
^board_ps.hlsl
^board_vs.hlsl
^geometric_primitive_ps.hlsl
^geometric_primitive_vs.hlsl
^model_ps.hlsl
^model_vs.hlsl
^skinned_mesh_ps.hlsl
^skinned_mesh_vs.hlsl
^sprite_ps.hlsl
^sprite_vs.hlsl
^static_mesh_ps.hlsl
^board_ps.hlsl
^board_vs.hlsl
^geometric_primitive_ps.hlsl
^geometric_primitive_vs.hlsl
^model_ps.hlsl
^model_vs.hlsl
^skinned_mesh_ps.hlsl
^skinned_mesh_vs.hlsl
^sprite_ps.hlsl
^sprite_vs.hlsl
^static_mesh_ps.hlsl
^board_ps.hlsl
^board_vs.hlsl
^geometric_primitive_ps.hlsl
^geometric_primitive_vs.hlsl
^model_ps.hlsl
^model_vs.hlsl
^skinned_mesh_ps.hlsl
^skinned_mesh_vs.hlsl
^sprite_ps.hlsl
^sprite_vs.hlsl
^static_mesh_ps.hlsl
^board_ps.hlsl
^board_vs.hlsl
^geometric_primitive_ps.hlsl
^geometric_primitive_vs.hlsl
^model_ps.hlsl
^model_vs.hlsl
^skinned_mesh_ps.hlsl
^skinned_mesh_vs.hlsl
^sprite_ps.hlsl
^sprite_vs.hlsl
^static_mesh_ps.hlsl
^board_ps.hlsl
^board_vs.hlsl
^geometric_primitive_ps.hlsl
^geometric_primitive_vs.hlsl
^model_ps.hlsl
^model_vs.hlsl
^skinned_mesh_ps.hlsl
^skinned_mesh_vs.hlsl
^sprite_ps.hlsl
^sprite_vs.hlsl
^static_mesh_ps.hlsl
^board_ps.hlsl
^board_vs.hlsl
^geometric_primitive_ps.hlsl
^geometric_primitive_vs.hlsl
^model_ps.hlsl
^model_vs.hlsl
^skinned_mesh_ps.hlsl
^skinned_mesh_vs.hlsl
^sprite_ps.hlsl
^sprite_vs.hlsl
^static_mesh_ps.hlsl
^board_ps.hlsl
^board_vs.hlsl
^geometric_primitive_ps.hlsl
^geometric_primitive_vs.hlsl
^model_ps.hlsl
^model_vs.hlsl
^skinned_mesh_ps.hlsl
^skinned_mesh_vs.hlsl
^sprite_ps.hlsl
^sprite_vs.hlsl
^static_mesh_ps.hlsl
^board_ps.hlsl
^board_vs.hlsl
^geometric_primitive_ps.hlsl
^geometric_primitive_vs.hlsl
^model_ps.hlsl
^model_vs.hlsl
^skinned_mesh_ps.hlsl
^skinned_mesh_vs.hlsl
^sprite_ps.hlsl
^sprite_vs.hlsl
^static_mesh_ps.hlsl
^board_ps.hlsl
^board_vs.hlsl
^geometric_primitive_ps.hlsl
^geometric_primitive_vs.hlsl
^model_ps.hlsl
^model_vs.hlsl
^skinned_mesh_ps.hlsl
^skinned_mesh_vs.hlsl
^sprite_ps.hlsl
^sprite_vs.hlsl
^static_mesh_ps.hlsl
^board_ps.hlsl
^board_vs.hlsl
^geometric_primitive_ps.hlsl
^geometric_primitive_vs.hlsl
^model_ps.hlsl
^model_vs.hlsl
^skinned_mesh_ps.hlsl
^skinned_mesh_vs.hlsl
^sprite_ps.hlsl
^sprite_vs.hlsl
^static_mesh_ps.hlsl
^board_ps.hlsl
^board_vs.hlsl
^geometric_primitive_ps.hlsl
^geometric_primitive_vs.hlsl
^model_ps.hlsl
^model_vs.hlsl
^skinned_mesh_ps.hlsl
^skinned_mesh_vs.hlsl
^sprite_ps.hlsl
^sprite_vs.hlsl
^static_mesh_ps.hlsl
^board_ps.hlsl
^board_vs.hlsl
^geometric_primitive_ps.hlsl
^geometric_primitive_vs.hlsl
^model_ps.hlsl
^model_vs.hlsl
^skinned_mesh_ps.hlsl
^skinned_mesh_vs.hlsl
^sprite_ps.hlsl
^sprite_vs.hlsl
^static_mesh_ps.hlsl
^board_ps.hlsl
^board_vs.hlsl
^geometric_primitive_ps.hlsl
^geometric_primitive_vs.hlsl
^model_ps.hlsl
^model_vs.hlsl
^skinned_mesh_ps.hlsl
^skinned_mesh_vs.hlsl
^sprite_ps.hlsl
^sprite_vs.hlsl
^static_mesh_ps.hlsl
^board_ps.hlsl
^board_vs.hlsl
^geometric_primitive_ps.hlsl
^geometric_primitive_vs.hlsl
^model_ps.hlsl
^model_vs.hlsl
^skinned_mesh_ps.hlsl
^skinned_mesh_vs.hlsl
^sprite_ps.hlsl
^sprite_vs.hlsl
^static_mesh_ps.hlsl
^board_ps.hlsl
^board_vs.hlsl
^geometric_primitive_ps.hlsl
^geometric_primitive_vs.hlsl
^model_ps.hlsl
^model_vs.hlsl
^skinned_mesh_ps.hlsl
^skinned_mesh_vs.hlsl
^sprite_ps.hlsl
^sprite_vs.hlsl
^static_mesh_ps.hlsl
^board_ps.hlsl
^board_vs.hlsl
^geometric_primitive_ps.hlsl
^geometric_primitive_vs.hlsl
^model_ps.hlsl
^model_vs.hlsl
^skinned_mesh_ps.hlsl
^skinned_mesh_vs.hlsl
^sprite_ps.hlsl
^sprite_vs.hlsl
^static_mesh_ps.hlsl
^board_ps.hlsl
^board_vs.hlsl
^geometric_primitive_ps.hlsl
^geometric_primitive_vs.hlsl
^model_ps.hlsl
^model_vs.hlsl
^skinned_mesh_ps.hlsl
^skinned_mesh_vs.hlsl
^sprite_ps.hlsl
^sprite_vs.hlsl
^static_mesh_ps.hlsl
^board_ps.hlsl
^board_vs.hlsl
^geometric_primitive_ps.hlsl
^geometric_primitive_vs.hlsl
^model_ps.hlsl
^model_vs.hlsl
^skinned_mesh_ps.hlsl
^skinned_mesh_vs.hlsl
^sprite_ps.hlsl
^sprite_vs.hlsl
^static_mesh_ps.hlsl
^board_ps.hlsl
^board_vs.hlsl
^geometric_primitive_ps.hlsl
^geometric_primitive_vs.hlsl
^model_ps.hlsl
^model_vs.hlsl
^skinned_mesh_ps.hlsl
^skinned_mesh_vs.hlsl
^sprite_ps.hlsl
^sprite_vs.hlsl
^static_mesh_ps.hlsl
^board_ps.hlsl
^board_vs.hlsl
^geometric_primitive_ps.hlsl
^geometric_primitive_vs.hlsl
^model_ps.hlsl
^model_vs.hlsl
^skinned_mesh_ps.hlsl
^skinned_mesh_vs.hlsl
^sprite_ps.hlsl
^sprite_vs.hlsl
^static_mesh_ps.hlsl
^board_ps.hlsl
^board_vs.hlsl
^geometric_primitive_ps.hlsl
^geometric_primitive_vs.hlsl
^model_ps.hlsl
^model_vs.hlsl
^skinned_mesh_ps.hlsl
^skinned_mesh_vs.hlsl
^sprite_ps.hlsl
^sprite_vs.hlsl
^static_mesh_ps.hlsl
^board_ps.hlsl
^board_vs.hlsl
^geometric_primitive_ps.hlsl
^geometric_primitive_vs.hlsl
^model_ps.hlsl
^model_vs.hlsl
^skinned_mesh_ps.hlsl
^skinned_mesh_vs.hlsl
^sprite_ps.hlsl
^sprite_vs.hlsl
^static_mesh_ps.hlsl
^board_ps.hlsl
^board_vs.hlsl
^geometric_primitive_ps.hlsl
^geometric_primitive_vs.hlsl
^model_ps.hlsl
^model_vs.hlsl
^skinned_mesh_ps.hlsl
^skinned_mesh_vs.hlsl
^sprite_ps.hlsl
^sprite_vs.hlsl
^static_mesh_ps.hlsl
^board_ps.hlsl
^board_vs.hlsl
^geometric_primitive_ps.hlsl
^geometric_primitive_vs.hlsl
^model_ps.hlsl
^model_vs.hlsl
^skinned_mesh_ps.hlsl
^skinned_mesh_vs.hlsl
^sprite_ps.hlsl
^sprite_vs.hlsl
^static_mesh_ps.hlsl
^board_ps.hlsl
^board_vs.hlsl
^geometric_primitive_ps.hlsl
^geometric_primitive_vs.hlsl
^model_ps.hlsl
^model_vs.hlsl
^skinned_mesh_ps.hlsl
^skinned_mesh_vs.hlsl
^sprite_ps.hlsl
^sprite_vs.hlsl
^static_mesh_ps.hlsl
^board_ps.hlsl
^board_vs.hlsl
^geometric_primitive_ps.hlsl
^geometric_primitive_vs.hlsl
^model_ps.hlsl
^model_vs.hlsl
^skinned_mesh_ps.hlsl
^skinned_mesh_vs.hlsl
^sprite_ps.hlsl
^sprite_vs.hlsl
^static_mesh_ps.hlsl
^board_ps.hlsl
^board_vs.hlsl
^geometric_primitive_ps.hlsl
^geometric_primitive_vs.hlsl
^model_ps.hlsl
^model_vs.hlsl
^skinned_mesh_ps.hlsl
^skinned_mesh_vs.hlsl
^sprite_ps.hlsl
^sprite_vs.hlsl
^static_mesh_ps.hlsl
^board_ps.hlsl
^board_vs.hlsl
^geometric_primitive_ps.hlsl
^geometric_primitive_vs.hlsl
^model_ps.hlsl
^model_vs.hlsl
^skinned_mesh_ps.hlsl
^skinned_mesh_vs.hlsl
^sprite_ps.hlsl
^sprite_vs.hlsl
^static_mesh_ps.hlsl
^board_ps.hlsl
^board_vs.hlsl
^geometric_primitive_ps.hlsl
^geometric_primitive_vs.hlsl
^model_ps.hlsl
^model_vs.hlsl
^skinned_mesh_ps.hlsl
^skinned_mesh_vs.hlsl
^sprite_ps.hlsl
^sprite_vs.hlsl
^static_mesh_ps.hlsl
^board_ps.hlsl
^board_vs.hlsl
^geometric_primitive_ps.hlsl
^geometric_primitive_vs.hlsl
^model_ps.hlsl
^model_vs.hlsl
^skinned_mesh_ps.hlsl
^skinned_mesh_vs.hlsl
^sprite_ps.hlsl
^sprite_vs.hlsl
^static_mesh_ps.hlsl
^board_ps.hlsl
^board_vs.hlsl
^geometric_primitive_ps.hlsl
^geometric_primitive_vs.hlsl
^model_ps.hlsl
^model_vs.hlsl
^skinned_mesh_ps.hlsl
^skinned_mesh_vs.hlsl
^sprite_ps.hlsl
^sprite_vs.hlsl
^static_mesh_ps.hlsl
^board_ps.hlsl
^board_vs.hlsl
^geometric_primitive_ps.hlsl
^geometric_primitive_vs.hlsl
^model_ps.hlsl
^model_vs.hlsl
^skinned_mesh_ps.hlsl
^skinned_mesh_vs.hlsl
^sprite_ps.hlsl
^sprite_vs.hlsl
^static_mesh_ps.hlsl
^board_ps.hlsl
^board_vs.hlsl
^geometric_primitive_ps.hlsl
^geometric_primitive_vs.hlsl
^model_ps.hlsl
^model_vs.hlsl
^skinned_mesh_ps.hlsl
^skinned_mesh_vs.hlsl
^sprite_ps.hlsl
^sprite_vs.hlsl
^static_mesh_ps.hlsl
^board_ps.hlsl
^board_vs.hlsl
^geometric_primitive_ps.hlsl
^geometric_primitive_vs.hlsl
^model_ps.hlsl
^model_vs.hlsl
^skinned_mesh_ps.hlsl
^skinned_mesh_vs.hlsl
^sprite_ps.hlsl
^sprite_vs.hlsl
^static_mesh_ps.hlsl
^board_ps.hlsl
^board_vs.hlsl
^geometric_primitive_ps.hlsl
^geometric_primitive_vs.hlsl
^model_ps.hlsl
^model_vs.hlsl
^skinned_mesh_ps.hlsl
^skinned_mesh_vs.hlsl
^sprite_ps.hlsl
^sprite_vs.hlsl
^static_mesh_ps.hlsl
^board_ps.hlsl
^board_vs.hlsl
^geometric_primitive_ps.hlsl
^geometric_primitive_vs.hlsl
^model_ps.hlsl
^model_vs.hlsl
^skinned_mesh_ps.hlsl
^skinned_mesh_vs.hlsl
^sprite_ps.hlsl
^sprite_vs.hlsl
^static_mesh_ps.hlsl
^board_ps.hlsl
^board_vs.hlsl
^geometric_primitive_ps.hlsl
^geometric_primitive_vs.hlsl
^model_ps.hlsl
^model_vs.hlsl
^skinned_mesh_ps.hlsl
^skinned_mesh_vs.hlsl
^sprite_ps.hlsl
^sprite_vs.hlsl
^static_mesh_ps.hlsl
^board_ps.hlsl
^board_vs.hlsl
^geometric_primitive_ps.hlsl
^geometric_primitive_vs.hlsl
^model_ps.hlsl
^model_vs.hlsl
^skinned_mesh_ps.hlsl
^skinned_mesh_vs.hlsl
^sprite_ps.hlsl
^sprite_vs.hlsl
^static_mesh_ps.hlsl
^board_ps.hlsl
^board_vs.hlsl
^geometric_primitive_ps.hlsl
^geometric_primitive_vs.hlsl
^model_ps.hlsl
^model_vs.hlsl
^skinned_mesh_ps.hlsl
^skinned_mesh_vs.hlsl
^sprite_ps.hlsl
^sprite_vs.hlsl
^static_mesh_ps.hlsl
^board_ps.hlsl
^board_vs.hlsl
^geometric_primitive_ps.hlsl
^geometric_primitive_vs.hlsl
^model_ps.hlsl
^model_vs.hlsl
^skinned_mesh_ps.hlsl
^skinned_mesh_vs.hlsl
^sprite_ps.hlsl
^sprite_vs.hlsl
^static_mesh_ps.hlsl
^board_ps.hlsl
^board_vs.hlsl
^geometric_primitive_ps.hlsl
^geometric_primitive_vs.hlsl
^model_ps.hlsl
^model_vs.hlsl
^skinned_mesh_ps.hlsl
^skinned_mesh_vs.hlsl
^sprite_ps.hlsl
^sprite_vs.hlsl
^static_mesh_ps.hlsl
^board_ps.hlsl
^board_vs.hlsl
^geometric_primitive_ps.hlsl
^geometric_primitive_vs.hlsl
^model_ps.hlsl
^model_vs.hlsl
^skinned_mesh_ps.hlsl
^skinned_mesh_vs.hlsl
^sprite_ps.hlsl
^sprite_vs.hlsl
^static_mesh_ps.hlsl
^board_ps.hlsl
^board_vs.hlsl
^geometric_primitive_ps.hlsl
^geometric_primitive_vs.hlsl
^model_ps.hlsl
^model_vs.hlsl
^skinned_mesh_ps.hlsl
^skinned_mesh_vs.hlsl
^sprite_ps.hlsl
^sprite_vs.hlsl
^static_mesh_ps.hlsl
^board_ps.hlsl
^board_vs.hlsl
^geometric_primitive_ps.hlsl
^geometric_primitive_vs.hlsl
^model_ps.hlsl
^model_vs.hlsl
^skinned_mesh_ps.hlsl
^skinned_mesh_vs.hlsl
^sprite_ps.hlsl
^sprite_vs.hlsl
^static_mesh_ps.hlsl
^board_ps.hlsl
^board_vs.hlsl
^geometric_primitive_ps.hlsl
^geometric_primitive_vs.hlsl
^model_ps.hlsl
^model_vs.hlsl
^skinned_mesh_ps.hlsl
^skinned_mesh_vs.hlsl
^sprite_ps.hlsl
^sprite_vs.hlsl
^static_mesh_ps.hlsl
^board_ps.hlsl
^board_vs.hlsl
^geometric_primitive_ps.hlsl
^geometric_primitive_vs.hlsl
^model_ps.hlsl
^model_vs.hlsl
^skinned_mesh_ps.hlsl
^skinned_mesh_vs.hlsl
^sprite_ps.hlsl
^sprite_vs.hlsl
^static_mesh_ps.hlsl
^board_ps.hlsl
^board_vs.hlsl
^geometric_primitive_ps.hlsl
^geometric_primitive_vs.hlsl
^model_ps.hlsl
^model_vs.hlsl
^skinned_mesh_ps.hlsl
^skinned_mesh_vs.hlsl
^sprite_ps.hlsl
^sprite_vs.hlsl
^static_mesh_ps.hlsl
^board_ps.hlsl
^board_vs.hlsl
^geometric_primitive_ps.hlsl
^geometric_primitive_vs.hlsl
^model_ps.hlsl
^model_vs.hlsl
^skinned_mesh_ps.hlsl
^skinned_mesh_vs.hlsl
^sprite_ps.hlsl
^sprite_vs.hlsl
^static_mesh_ps.hlsl
^board_ps.hlsl
^board_vs.hlsl
^geometric_primitive_ps.hlsl
^geometric_primitive_vs.hlsl
^model_ps.hlsl
^model_vs.hlsl
^skinned_mesh_ps.hlsl
^skinned_mesh_vs.hlsl
^sprite_ps.hlsl
^sprite_vs.hlsl
^static_mesh_ps.hlsl
^board_ps.hlsl
^board_vs.hlsl
^geometric_primitive_ps.hlsl
^geometric_primitive_vs.hlsl
^model_ps.hlsl
^model_vs.hlsl
^skinned_mesh_ps.hlsl
^skinned_mesh_vs.hlsl
^sprite_ps.hlsl
^sprite_vs.hlsl
^static_mesh_ps.hlsl
^D:\授業\自作ライブラリ\自作\3dgp.00\3dgp.vcxproj
D:\授業\自作ライブラリ\自作\3dgp.00\x64\Release\3dgp.ipdb
D:\授業\自作ライブラリ\自作\3dgp.00\x64\Release\3dgp.iobj
^D:\授業\自作ライブラリ\自作\3dgp.00\3dgp.vcxproj
D:\授業\自作ライブラリ\自作\3dgp.00\x64\Release\3dgp.ipdb
D:\授業\自作ライブラリ\自作\3dgp.00\x64\Release\3dgp.iobj
^D:\授業\自作ライブラリ\自作\3dgp.00\3dgp.vcxproj
D:\授業\自作ライブラリ\自作\3dgp.00\x64\Release\3dgp.ipdb
D:\授業\自作ライブラリ\自作\3dgp.00\x64\Release\3dgp.iobj
^D:\授業\自作ライブラリ\自作\3dgp.00\3dgp.vcxproj
D:\授業\自作ライブラリ\自作\3dgp.00\x64\Release\3dgp.ipdb
D:\授業\自作ライブラリ\自作\3dgp.00\x64\Release\3dgp.iobj
^D:\授業\自作ライブラリ\自作\3dgp.00\3dgp.vcxproj
D:\授業\自作ライブラリ\自作\3dgp.00\x64\Release\3dgp.ipdb
D:\授業\自作ライブラリ\自作\3dgp.00\x64\Release\3dgp.iobj
^D:\授業\自作ライブラリ\自作\3dgp.00\3dgp.vcxproj
D:\授業\自作ライブラリ\自作\3dgp.00\x64\Release\3dgp.ipdb
D:\授業\自作ライブラリ\自作\3dgp.00\x64\Release\3dgp.iobj
^D:\授業\自作ライブラリ\自作\3dgp.00\3dgp.vcxproj
D:\授業\自作ライブラリ\自作\3dgp.00\x64\Release\3dgp.ipdb
D:\授業\自作ライブラリ\自作\3dgp.00\x64\Release\3dgp.iobj
^D:\授業\自作ライブラリ\自作\3dgp.00\3dgp.vcxproj
D:\授業\自作ライブラリ\自作\3dgp.00\x64\Release\3dgp.ipdb
D:\授業\自作ライブラリ\自作\3dgp.00\x64\Release\3dgp.iobj
^D:\授業\自作ライブラリ\自作\3dgp.00\3dgp.vcxproj
D:\授業\自作ライブラリ\自作\3dgp.00\x64\Release\3dgp.ipdb
D:\授業\自作ライブラリ\自作\3dgp.00\x64\Release\3dgp.iobj
^D:\授業\自作ライブラリ\自作\3dgp.00\3dgp.vcxproj
D:\授業\自作ライブラリ\自作\3dgp.00\x64\Release\3dgp.ipdb
D:\授業\自作ライブラリ\自作\3dgp.00\x64\Release\3dgp.iobj
^D:\授業\自作ライブラリ\自作\3dgp.00\3dgp.vcxproj
D:\授業\自作ライブラリ\自作\3dgp.00\x64\Release\3dgp.ipdb
D:\授業\自作ライブラリ\自作\3dgp.00\x64\Release\3dgp.iobj
^D:\授業\自作ライブラリ\自作\3dgp.00\3dgp.vcxproj
D:\授業\自作ライブラリ\自作\3dgp.00\x64\Release\3dgp.ipdb
D:\授業\自作ライブラリ\自作\3dgp.00\x64\Release\3dgp.iobj
^D:\授業\自作ライブラリ\自作\3dgp.00\3dgp.vcxproj
D:\授業\自作ライブラリ\自作\3dgp.00\x64\Release\3dgp.ipdb
D:\授業\自作ライブラリ\自作\3dgp.00\x64\Release\3dgp.iobj
^D:\授業\自作ライブラリ\自作\3dgp.00\3dgp.vcxproj
D:\授業\自作ライブラリ\自作\3dgp.00\x64\Release\3dgp.ipdb
D:\授業\自作ライブラリ\自作\3dgp.00\x64\Release\3dgp.iobj
^D:\授業\自作ライブラリ\自作\3dgp.00\3dgp.vcxproj
D:\授業\自作ライブラリ\自作\3dgp.00\x64\Release\3dgp.ipdb
D:\授業\自作ライブラリ\自作\3dgp.00\x64\Release\3dgp.iobj
^D:\授業\自作ライブラリ\自作\3dgp.00\3dgp.vcxproj
D:\授業\自作ライブラリ\自作\3dgp.00\x64\Release\3dgp.ipdb
D:\授業\自作ライブラリ\自作\3dgp.00\x64\Release\3dgp.iobj
^D:\授業\自作ライブラリ\自作\3dgp.00\3dgp.vcxproj
D:\授業\自作ライブラリ\自作\3dgp.00\x64\Release\3dgp.ipdb
D:\授業\自作ライブラリ\自作\3dgp.00\x64\Release\3dgp.iobj
^D:\授業\自作ライブラリ\自作\3dgp.00\3dgp.vcxproj
D:\授業\自作ライブラリ\自作\3dgp.00\x64\Release\3dgp.ipdb
D:\授業\自作ライブラリ\自作\3dgp.00\x64\Release\3dgp.iobj
^D:\授業\自作ライブラリ\自作\3dgp.00\3dgp.vcxproj
D:\授業\自作ライブラリ\自作\3dgp.00\x64\Release\3dgp.ipdb
D:\授業\自作ライブラリ\自作\3dgp.00\x64\Release\3dgp.iobj
