^D:\後期チーム制作\3DGP.00\BACKGROUNDOBJ.CPP
/c /I".\DIRECTXTK-MASTER\INC" /I".\FBX SDK\2016.1.2\INCLUDE" /Zi /nologo /W3 /WX- /sdl /O2 /Oi /GL /D NDEBUG /D _WINDOWS /D _UNICODE /D UNICODE /Gm- /EHsc /MD /GS /Gy /fp:precise /Zc:wchar_t /Zc:forScope /Zc:inline /Fo"X64\RELEASE\\" /Fd"X64\RELEASE\VC140.PDB" /Gd /TP D:\後期チーム制作\3DGP.00\BACKGROUNDOBJ.CPP
^D:\後期チーム制作\3DGP.00\BLENDSTATE.CPP
/c /I".\DIRECTXTK-MASTER\INC" /I".\FBX SDK\2016.1.2\INCLUDE" /Zi /nologo /W3 /WX- /sdl /O2 /Oi /GL /D NDEBUG /D _WINDOWS /D _UNICODE /D UNICODE /Gm- /EHsc /MD /GS /Gy /fp:precise /Zc:wchar_t /Zc:forScope /Zc:inline /Fo"X64\RELEASE\\" /Fd"X64\RELEASE\VC140.PDB" /Gd /TP D:\後期チーム制作\3DGP.00\BLENDSTATE.CPP
^D:\後期チーム制作\3DGP.00\BOARD.CPP
/c /I".\DIRECTXTK-MASTER\INC" /I".\FBX SDK\2016.1.2\INCLUDE" /Zi /nologo /W3 /WX- /sdl /O2 /Oi /GL /D NDEBUG /D _WINDOWS /D _UNICODE /D UNICODE /Gm- /EHsc /MD /GS /Gy /fp:precise /Zc:wchar_t /Zc:forScope /Zc:inline /Fo"X64\RELEASE\\" /Fd"X64\RELEASE\VC140.PDB" /Gd /TP D:\後期チーム制作\3DGP.00\BOARD.CPP
^D:\後期チーム制作\3DGP.00\CAMERA.CPP
/c /I".\DIRECTXTK-MASTER\INC" /I".\FBX SDK\2016.1.2\INCLUDE" /Zi /nologo /W3 /WX- /sdl /O2 /Oi /GL /D NDEBUG /D _WINDOWS /D _UNICODE /D UNICODE /Gm- /EHsc /MD /GS /Gy /fp:precise /Zc:wchar_t /Zc:forScope /Zc:inline /Fo"X64\RELEASE\\" /Fd"X64\RELEASE\VC140.PDB" /Gd /TP D:\後期チーム制作\3DGP.00\CAMERA.CPP
^D:\後期チーム制作\3DGP.00\COLLISION.CPP
/c /I".\DIRECTXTK-MASTER\INC" /I".\FBX SDK\2016.1.2\INCLUDE" /Zi /nologo /W3 /WX- /sdl /O2 /Oi /GL /D NDEBUG /D _WINDOWS /D _UNICODE /D UNICODE /Gm- /EHsc /MD /GS /Gy /fp:precise /Zc:wchar_t /Zc:forScope /Zc:inline /Fo"X64\RELEASE\\" /Fd"X64\RELEASE\VC140.PDB" /Gd /TP D:\後期チーム制作\3DGP.00\COLLISION.CPP
^D:\後期チーム制作\3DGP.00\FADO_OUT.CPP
/c /I".\DIRECTXTK-MASTER\INC" /I".\FBX SDK\2016.1.2\INCLUDE" /Zi /nologo /W3 /WX- /sdl /O2 /Oi /GL /D NDEBUG /D _WINDOWS /D _UNICODE /D UNICODE /Gm- /EHsc /MD /GS /Gy /fp:precise /Zc:wchar_t /Zc:forScope /Zc:inline /Fo"X64\RELEASE\\" /Fd"X64\RELEASE\VC140.PDB" /Gd /TP D:\後期チーム制作\3DGP.00\FADO_OUT.CPP
^D:\後期チーム制作\3DGP.00\FBX_LOAD.CPP
/c /I".\DIRECTXTK-MASTER\INC" /I".\FBX SDK\2016.1.2\INCLUDE" /Zi /nologo /W3 /WX- /sdl /O2 /Oi /GL /D NDEBUG /D _WINDOWS /D _UNICODE /D UNICODE /Gm- /EHsc /MD /GS /Gy /fp:precise /Zc:wchar_t /Zc:forScope /Zc:inline /Fo"X64\RELEASE\\" /Fd"X64\RELEASE\VC140.PDB" /Gd /TP D:\後期チーム制作\3DGP.00\FBX_LOAD.CPP
^D:\後期チーム制作\3DGP.00\GEOMETRIC_PRIMITIVE.CPP
/c /I".\DIRECTXTK-MASTER\INC" /I".\FBX SDK\2016.1.2\INCLUDE" /Zi /nologo /W3 /WX- /sdl /O2 /Oi /GL /D NDEBUG /D _WINDOWS /D _UNICODE /D UNICODE /Gm- /EHsc /MD /GS /Gy /fp:precise /Zc:wchar_t /Zc:forScope /Zc:inline /Fo"X64\RELEASE\\" /Fd"X64\RELEASE\VC140.PDB" /Gd /TP D:\後期チーム制作\3DGP.00\GEOMETRIC_PRIMITIVE.CPP
^D:\後期チーム制作\3DGP.00\GOAL_PRODUCTION.CPP
/c /I".\DIRECTXTK-MASTER\INC" /I".\FBX SDK\2016.1.2\INCLUDE" /Zi /nologo /W3 /WX- /sdl /O2 /Oi /GL /D NDEBUG /D _WINDOWS /D _UNICODE /D UNICODE /Gm- /EHsc /MD /GS /Gy /fp:precise /Zc:wchar_t /Zc:forScope /Zc:inline /Fo"X64\RELEASE\\" /Fd"X64\RELEASE\VC140.PDB" /Gd /TP D:\後期チーム制作\3DGP.00\GOAL_PRODUCTION.CPP
^D:\後期チーム制作\3DGP.00\IMGUI\IMGUI.CPP
/c /I".\DIRECTXTK-MASTER\INC" /I".\FBX SDK\2016.1.2\INCLUDE" /Zi /nologo /W3 /WX- /sdl /O2 /Oi /GL /D NDEBUG /D _WINDOWS /D _UNICODE /D UNICODE /Gm- /EHsc /MD /GS /Gy /fp:precise /Zc:wchar_t /Zc:forScope /Zc:inline /Fo"X64\RELEASE\\" /Fd"X64\RELEASE\VC140.PDB" /Gd /TP D:\後期チーム制作\3DGP.00\IMGUI\IMGUI.CPP
^D:\後期チーム制作\3DGP.00\IMGUI\IMGUI_DEMO.CPP
/c /I".\DIRECTXTK-MASTER\INC" /I".\FBX SDK\2016.1.2\INCLUDE" /Zi /nologo /W3 /WX- /sdl /O2 /Oi /GL /D NDEBUG /D _WINDOWS /D _UNICODE /D UNICODE /Gm- /EHsc /MD /GS /Gy /fp:precise /Zc:wchar_t /Zc:forScope /Zc:inline /Fo"X64\RELEASE\\" /Fd"X64\RELEASE\VC140.PDB" /Gd /TP D:\後期チーム制作\3DGP.00\IMGUI\IMGUI_DEMO.CPP
^D:\後期チーム制作\3DGP.00\IMGUI\IMGUI_DRAW.CPP
/c /I".\DIRECTXTK-MASTER\INC" /I".\FBX SDK\2016.1.2\INCLUDE" /Zi /nologo /W3 /WX- /sdl /O2 /Oi /GL /D NDEBUG /D _WINDOWS /D _UNICODE /D UNICODE /Gm- /EHsc /MD /GS /Gy /fp:precise /Zc:wchar_t /Zc:forScope /Zc:inline /Fo"X64\RELEASE\\" /Fd"X64\RELEASE\VC140.PDB" /Gd /TP D:\後期チーム制作\3DGP.00\IMGUI\IMGUI_DRAW.CPP
^D:\後期チーム制作\3DGP.00\IMGUI\IMGUI_IMPL_DX11.CPP
/c /I".\DIRECTXTK-MASTER\INC" /I".\FBX SDK\2016.1.2\INCLUDE" /Zi /nologo /W3 /WX- /sdl /O2 /Oi /GL /D NDEBUG /D _WINDOWS /D _UNICODE /D UNICODE /Gm- /EHsc /MD /GS /Gy /fp:precise /Zc:wchar_t /Zc:forScope /Zc:inline /Fo"X64\RELEASE\\" /Fd"X64\RELEASE\VC140.PDB" /Gd /TP D:\後期チーム制作\3DGP.00\IMGUI\IMGUI_IMPL_DX11.CPP
^D:\後期チーム制作\3DGP.00\IMGUI\IMGUI_IMPL_WIN32.CPP
/c /I".\DIRECTXTK-MASTER\INC" /I".\FBX SDK\2016.1.2\INCLUDE" /Zi /nologo /W3 /WX- /sdl /O2 /Oi /GL /D NDEBUG /D _WINDOWS /D _UNICODE /D UNICODE /Gm- /EHsc /MD /GS /Gy /fp:precise /Zc:wchar_t /Zc:forScope /Zc:inline /Fo"X64\RELEASE\\" /Fd"X64\RELEASE\VC140.PDB" /Gd /TP D:\後期チーム制作\3DGP.00\IMGUI\IMGUI_IMPL_WIN32.CPP
^D:\後期チーム制作\3DGP.00\IMGUI\IMGUI_WIDGETS.CPP
/c /I".\DIRECTXTK-MASTER\INC" /I".\FBX SDK\2016.1.2\INCLUDE" /Zi /nologo /W3 /WX- /sdl /O2 /Oi /GL /D NDEBUG /D _WINDOWS /D _UNICODE /D UNICODE /Gm- /EHsc /MD /GS /Gy /fp:precise /Zc:wchar_t /Zc:forScope /Zc:inline /Fo"X64\RELEASE\\" /Fd"X64\RELEASE\VC140.PDB" /Gd /TP D:\後期チーム制作\3DGP.00\IMGUI\IMGUI_WIDGETS.CPP
^D:\後期チーム制作\3DGP.00\LOGGER.CPP
/c /I".\DIRECTXTK-MASTER\INC" /I".\FBX SDK\2016.1.2\INCLUDE" /Zi /nologo /W3 /WX- /sdl /O2 /Oi /GL /D NDEBUG /D _WINDOWS /D _UNICODE /D UNICODE /Gm- /EHsc /MD /GS /Gy /fp:precise /Zc:wchar_t /Zc:forScope /Zc:inline /Fo"X64\RELEASE\\" /Fd"X64\RELEASE\VC140.PDB" /Gd /TP D:\後期チーム制作\3DGP.00\LOGGER.CPP
^D:\後期チーム制作\3DGP.00\MAIN.CPP
/c /I".\DIRECTXTK-MASTER\INC" /I".\FBX SDK\2016.1.2\INCLUDE" /Zi /nologo /W3 /WX- /sdl /O2 /Oi /GL /D NDEBUG /D _WINDOWS /D _UNICODE /D UNICODE /Gm- /EHsc /MD /GS /Gy /fp:precise /Zc:wchar_t /Zc:forScope /Zc:inline /Fo"X64\RELEASE\\" /Fd"X64\RELEASE\VC140.PDB" /Gd /TP D:\後期チーム制作\3DGP.00\MAIN.CPP
^D:\後期チーム制作\3DGP.00\FRAMEWORK.CPP
/c /I".\DIRECTXTK-MASTER\INC" /I".\FBX SDK\2016.1.2\INCLUDE" /Zi /nologo /W3 /WX- /sdl /O2 /Oi /GL /D NDEBUG /D _WINDOWS /D _UNICODE /D UNICODE /Gm- /EHsc /MD /GS /Gy /fp:precise /Zc:wchar_t /Zc:forScope /Zc:inline /Fo"X64\RELEASE\\" /Fd"X64\RELEASE\VC140.PDB" /Gd /TP D:\後期チーム制作\3DGP.00\FRAMEWORK.CPP
^D:\後期チーム制作\3DGP.00\MODEL.CPP
/c /I".\DIRECTXTK-MASTER\INC" /I".\FBX SDK\2016.1.2\INCLUDE" /Zi /nologo /W3 /WX- /sdl /O2 /Oi /GL /D NDEBUG /D _WINDOWS /D _UNICODE /D UNICODE /Gm- /EHsc /MD /GS /Gy /fp:precise /Zc:wchar_t /Zc:forScope /Zc:inline /Fo"X64\RELEASE\\" /Fd"X64\RELEASE\VC140.PDB" /Gd /TP D:\後期チーム制作\3DGP.00\MODEL.CPP
^D:\後期チーム制作\3DGP.00\MODEL_RENDERER.CPP
/c /I".\DIRECTXTK-MASTER\INC" /I".\FBX SDK\2016.1.2\INCLUDE" /Zi /nologo /W3 /WX- /sdl /O2 /Oi /GL /D NDEBUG /D _WINDOWS /D _UNICODE /D UNICODE /Gm- /EHsc /MD /GS /Gy /fp:precise /Zc:wchar_t /Zc:forScope /Zc:inline /Fo"X64\RELEASE\\" /Fd"X64\RELEASE\VC140.PDB" /Gd /TP D:\後期チーム制作\3DGP.00\MODEL_RENDERER.CPP
^D:\後期チーム制作\3DGP.00\MODEL_RESOURCE.CPP
/c /I".\DIRECTXTK-MASTER\INC" /I".\FBX SDK\2016.1.2\INCLUDE" /Zi /nologo /W3 /WX- /sdl /O2 /Oi /GL /D NDEBUG /D _WINDOWS /D _UNICODE /D UNICODE /Gm- /EHsc /MD /GS /Gy /fp:precise /Zc:wchar_t /Zc:forScope /Zc:inline /Fo"X64\RELEASE\\" /Fd"X64\RELEASE\VC140.PDB" /Gd /TP D:\後期チーム制作\3DGP.00\MODEL_RESOURCE.CPP
^D:\後期チーム制作\3DGP.00\PARTICLE.CPP
/c /I".\DIRECTXTK-MASTER\INC" /I".\FBX SDK\2016.1.2\INCLUDE" /Zi /nologo /W3 /WX- /sdl /O2 /Oi /GL /D NDEBUG /D _WINDOWS /D _UNICODE /D UNICODE /Gm- /EHsc /MD /GS /Gy /fp:precise /Zc:wchar_t /Zc:forScope /Zc:inline /Fo"X64\RELEASE\\" /Fd"X64\RELEASE\VC140.PDB" /Gd /TP D:\後期チーム制作\3DGP.00\PARTICLE.CPP
^D:\後期チーム制作\3DGP.00\RESOURCEMANAGER.CPP
/c /I".\DIRECTXTK-MASTER\INC" /I".\FBX SDK\2016.1.2\INCLUDE" /Zi /nologo /W3 /WX- /sdl /O2 /Oi /GL /D NDEBUG /D _WINDOWS /D _UNICODE /D UNICODE /Gm- /EHsc /MD /GS /Gy /fp:precise /Zc:wchar_t /Zc:forScope /Zc:inline /Fo"X64\RELEASE\\" /Fd"X64\RELEASE\VC140.PDB" /Gd /TP D:\後期チーム制作\3DGP.00\RESOURCEMANAGER.CPP
^D:\後期チーム制作\3DGP.00\SKINNED_MESH.CPP
/c /I".\DIRECTXTK-MASTER\INC" /I".\FBX SDK\2016.1.2\INCLUDE" /Zi /nologo /W3 /WX- /sdl /O2 /Oi /GL /D NDEBUG /D _WINDOWS /D _UNICODE /D UNICODE /Gm- /EHsc /MD /GS /Gy /fp:precise /Zc:wchar_t /Zc:forScope /Zc:inline /Fo"X64\RELEASE\\" /Fd"X64\RELEASE\VC140.PDB" /Gd /TP D:\後期チーム制作\3DGP.00\SKINNED_MESH.CPP
^D:\後期チーム制作\3DGP.00\SOUND.CPP
/c /I".\DIRECTXTK-MASTER\INC" /I".\FBX SDK\2016.1.2\INCLUDE" /Zi /nologo /W3 /WX- /sdl /O2 /Oi /GL /D NDEBUG /D _WINDOWS /D _UNICODE /D UNICODE /Gm- /EHsc /MD /GS /Gy /fp:precise /Zc:wchar_t /Zc:forScope /Zc:inline /Fo"X64\RELEASE\\" /Fd"X64\RELEASE\VC140.PDB" /Gd /TP D:\後期チーム制作\3DGP.00\SOUND.CPP
^D:\後期チーム制作\3DGP.00\SOUND_BUFFER.CPP
/c /I".\DIRECTXTK-MASTER\INC" /I".\FBX SDK\2016.1.2\INCLUDE" /Zi /nologo /W3 /WX- /sdl /O2 /Oi /GL /D NDEBUG /D _WINDOWS /D _UNICODE /D UNICODE /Gm- /EHsc /MD /GS /Gy /fp:precise /Zc:wchar_t /Zc:forScope /Zc:inline /Fo"X64\RELEASE\\" /Fd"X64\RELEASE\VC140.PDB" /Gd /TP D:\後期チーム制作\3DGP.00\SOUND_BUFFER.CPP
^D:\後期チーム制作\3DGP.00\SPRITE.CPP
/c /I".\DIRECTXTK-MASTER\INC" /I".\FBX SDK\2016.1.2\INCLUDE" /Zi /nologo /W3 /WX- /sdl /O2 /Oi /GL /D NDEBUG /D _WINDOWS /D _UNICODE /D UNICODE /Gm- /EHsc /MD /GS /Gy /fp:precise /Zc:wchar_t /Zc:forScope /Zc:inline /Fo"X64\RELEASE\\" /Fd"X64\RELEASE\VC140.PDB" /Gd /TP D:\後期チーム制作\3DGP.00\SPRITE.CPP
^D:\後期チーム制作\3DGP.00\STAGEOBJ.CPP
/c /I".\DIRECTXTK-MASTER\INC" /I".\FBX SDK\2016.1.2\INCLUDE" /Zi /nologo /W3 /WX- /sdl /O2 /Oi /GL /D NDEBUG /D _WINDOWS /D _UNICODE /D UNICODE /Gm- /EHsc /MD /GS /Gy /fp:precise /Zc:wchar_t /Zc:forScope /Zc:inline /Fo"X64\RELEASE\\" /Fd"X64\RELEASE\VC140.PDB" /Gd /TP D:\後期チーム制作\3DGP.00\STAGEOBJ.CPP
^D:\後期チーム制作\3DGP.00\STATIC_MESH.CPP
/c /I".\DIRECTXTK-MASTER\INC" /I".\FBX SDK\2016.1.2\INCLUDE" /Zi /nologo /W3 /WX- /sdl /O2 /Oi /GL /D NDEBUG /D _WINDOWS /D _UNICODE /D UNICODE /Gm- /EHsc /MD /GS /Gy /fp:precise /Zc:wchar_t /Zc:forScope /Zc:inline /Fo"X64\RELEASE\\" /Fd"X64\RELEASE\VC140.PDB" /Gd /TP D:\後期チーム制作\3DGP.00\STATIC_MESH.CPP
^D:\後期チーム制作\3DGP.00\STAGE_MANAGER.CPP
/c /I".\DIRECTXTK-MASTER\INC" /I".\FBX SDK\2016.1.2\INCLUDE" /Zi /nologo /W3 /WX- /sdl /O2 /Oi /GL /D NDEBUG /D _WINDOWS /D _UNICODE /D UNICODE /Gm- /EHsc /MD /GS /Gy /fp:precise /Zc:wchar_t /Zc:forScope /Zc:inline /Fo"X64\RELEASE\\" /Fd"X64\RELEASE\VC140.PDB" /Gd /TP D:\後期チーム制作\3DGP.00\STAGE_MANAGER.CPP
^D:\後期チーム制作\3DGP.00\PLAYER.CPP
/c /I".\DIRECTXTK-MASTER\INC" /I".\FBX SDK\2016.1.2\INCLUDE" /Zi /nologo /W3 /WX- /sdl /O2 /Oi /GL /D NDEBUG /D _WINDOWS /D _UNICODE /D UNICODE /Gm- /EHsc /MD /GS /Gy /fp:precise /Zc:wchar_t /Zc:forScope /Zc:inline /Fo"X64\RELEASE\\" /Fd"X64\RELEASE\VC140.PDB" /Gd /TP D:\後期チーム制作\3DGP.00\PLAYER.CPP
^D:\後期チーム制作\3DGP.00\RANKING.CPP
/c /I".\DIRECTXTK-MASTER\INC" /I".\FBX SDK\2016.1.2\INCLUDE" /Zi /nologo /W3 /WX- /sdl /O2 /Oi /GL /D NDEBUG /D _WINDOWS /D _UNICODE /D UNICODE /Gm- /EHsc /MD /GS /Gy /fp:precise /Zc:wchar_t /Zc:forScope /Zc:inline /Fo"X64\RELEASE\\" /Fd"X64\RELEASE\VC140.PDB" /Gd /TP D:\後期チーム制作\3DGP.00\RANKING.CPP
^D:\後期チーム制作\3DGP.00\UI.CPP
/c /I".\DIRECTXTK-MASTER\INC" /I".\FBX SDK\2016.1.2\INCLUDE" /Zi /nologo /W3 /WX- /sdl /O2 /Oi /GL /D NDEBUG /D _WINDOWS /D _UNICODE /D UNICODE /Gm- /EHsc /MD /GS /Gy /fp:precise /Zc:wchar_t /Zc:forScope /Zc:inline /Fo"X64\RELEASE\\" /Fd"X64\RELEASE\VC140.PDB" /Gd /TP D:\後期チーム制作\3DGP.00\UI.CPP
^D:\後期チーム制作\3DGP.00\SCENE_GAME.CPP
/c /I".\DIRECTXTK-MASTER\INC" /I".\FBX SDK\2016.1.2\INCLUDE" /Zi /nologo /W3 /WX- /sdl /O2 /Oi /GL /D NDEBUG /D _WINDOWS /D _UNICODE /D UNICODE /Gm- /EHsc /MD /GS /Gy /fp:precise /Zc:wchar_t /Zc:forScope /Zc:inline /Fo"X64\RELEASE\\" /Fd"X64\RELEASE\VC140.PDB" /Gd /TP D:\後期チーム制作\3DGP.00\SCENE_GAME.CPP
^D:\後期チーム制作\3DGP.00\SCENE_MANAGER.CPP
/c /I".\DIRECTXTK-MASTER\INC" /I".\FBX SDK\2016.1.2\INCLUDE" /Zi /nologo /W3 /WX- /sdl /O2 /Oi /GL /D NDEBUG /D _WINDOWS /D _UNICODE /D UNICODE /Gm- /EHsc /MD /GS /Gy /fp:precise /Zc:wchar_t /Zc:forScope /Zc:inline /Fo"X64\RELEASE\\" /Fd"X64\RELEASE\VC140.PDB" /Gd /TP D:\後期チーム制作\3DGP.00\SCENE_MANAGER.CPP
^D:\後期チーム制作\3DGP.00\SCENE_OVER.CPP
/c /I".\DIRECTXTK-MASTER\INC" /I".\FBX SDK\2016.1.2\INCLUDE" /Zi /nologo /W3 /WX- /sdl /O2 /Oi /GL /D NDEBUG /D _WINDOWS /D _UNICODE /D UNICODE /Gm- /EHsc /MD /GS /Gy /fp:precise /Zc:wchar_t /Zc:forScope /Zc:inline /Fo"X64\RELEASE\\" /Fd"X64\RELEASE\VC140.PDB" /Gd /TP D:\後期チーム制作\3DGP.00\SCENE_OVER.CPP
^D:\後期チーム制作\3DGP.00\SCENE_RESULT.CPP
/c /I".\DIRECTXTK-MASTER\INC" /I".\FBX SDK\2016.1.2\INCLUDE" /Zi /nologo /W3 /WX- /sdl /O2 /Oi /GL /D NDEBUG /D _WINDOWS /D _UNICODE /D UNICODE /Gm- /EHsc /MD /GS /Gy /fp:precise /Zc:wchar_t /Zc:forScope /Zc:inline /Fo"X64\RELEASE\\" /Fd"X64\RELEASE\VC140.PDB" /Gd /TP D:\後期チーム制作\3DGP.00\SCENE_RESULT.CPP
^D:\後期チーム制作\3DGP.00\SCENE_TITLE.CPP
/c /I".\DIRECTXTK-MASTER\INC" /I".\FBX SDK\2016.1.2\INCLUDE" /Zi /nologo /W3 /WX- /sdl /O2 /Oi /GL /D NDEBUG /D _WINDOWS /D _UNICODE /D UNICODE /Gm- /EHsc /MD /GS /Gy /fp:precise /Zc:wchar_t /Zc:forScope /Zc:inline /Fo"X64\RELEASE\\" /Fd"X64\RELEASE\VC140.PDB" /Gd /TP D:\後期チーム制作\3DGP.00\SCENE_TITLE.CPP
^D:\_チーム制作\チーム制作後期2回目\3DGP.00\BLENDSTATE.CPP
/c /I".\DIRECTXTK-MASTER\INC" /I".\FBX SDK\2016.1.2\INCLUDE" /Zi /nologo /W3 /WX- /sdl /O2 /Oi /GL /D NDEBUG /D _WINDOWS /D _UNICODE /D UNICODE /Gm- /EHsc /MD /GS /Gy /fp:precise /Zc:wchar_t /Zc:forScope /Zc:inline /Fo"X64\RELEASE\\" /Fd"X64\RELEASE\VC140.PDB" /Gd /TP D:\_チーム制作\チーム制作後期2回目\3DGP.00\BLENDSTATE.CPP
^D:\_チーム制作\チーム制作後期2回目\3DGP.00\BOARD.CPP
/c /I".\DIRECTXTK-MASTER\INC" /I".\FBX SDK\2016.1.2\INCLUDE" /Zi /nologo /W3 /WX- /sdl /O2 /Oi /GL /D NDEBUG /D _WINDOWS /D _UNICODE /D UNICODE /Gm- /EHsc /MD /GS /Gy /fp:precise /Zc:wchar_t /Zc:forScope /Zc:inline /Fo"X64\RELEASE\\" /Fd"X64\RELEASE\VC140.PDB" /Gd /TP D:\_チーム制作\チーム制作後期2回目\3DGP.00\BOARD.CPP
^D:\_チーム制作\チーム制作後期2回目\3DGP.00\CAMERA.CPP
/c /I".\DIRECTXTK-MASTER\INC" /I".\FBX SDK\2016.1.2\INCLUDE" /Zi /nologo /W3 /WX- /sdl /O2 /Oi /GL /D NDEBUG /D _WINDOWS /D _UNICODE /D UNICODE /Gm- /EHsc /MD /GS /Gy /fp:precise /Zc:wchar_t /Zc:forScope /Zc:inline /Fo"X64\RELEASE\\" /Fd"X64\RELEASE\VC140.PDB" /Gd /TP D:\_チーム制作\チーム制作後期2回目\3DGP.00\CAMERA.CPP
^D:\_チーム制作\チーム制作後期2回目\3DGP.00\FBX_LOAD.CPP
/c /I".\DIRECTXTK-MASTER\INC" /I".\FBX SDK\2016.1.2\INCLUDE" /Zi /nologo /W3 /WX- /sdl /O2 /Oi /GL /D NDEBUG /D _WINDOWS /D _UNICODE /D UNICODE /Gm- /EHsc /MD /GS /Gy /fp:precise /Zc:wchar_t /Zc:forScope /Zc:inline /Fo"X64\RELEASE\\" /Fd"X64\RELEASE\VC140.PDB" /Gd /TP D:\_チーム制作\チーム制作後期2回目\3DGP.00\FBX_LOAD.CPP
^D:\_チーム制作\チーム制作後期2回目\3DGP.00\GEOMETRIC_PRIMITIVE.CPP
/c /I".\DIRECTXTK-MASTER\INC" /I".\FBX SDK\2016.1.2\INCLUDE" /Zi /nologo /W3 /WX- /sdl /O2 /Oi /GL /D NDEBUG /D _WINDOWS /D _UNICODE /D UNICODE /Gm- /EHsc /MD /GS /Gy /fp:precise /Zc:wchar_t /Zc:forScope /Zc:inline /Fo"X64\RELEASE\\" /Fd"X64\RELEASE\VC140.PDB" /Gd /TP D:\_チーム制作\チーム制作後期2回目\3DGP.00\GEOMETRIC_PRIMITIVE.CPP
^D:\_チーム制作\チーム制作後期2回目\3DGP.00\IMGUI\IMGUI.CPP
/c /I".\DIRECTXTK-MASTER\INC" /I".\FBX SDK\2016.1.2\INCLUDE" /Zi /nologo /W3 /WX- /sdl /O2 /Oi /GL /D NDEBUG /D _WINDOWS /D _UNICODE /D UNICODE /Gm- /EHsc /MD /GS /Gy /fp:precise /Zc:wchar_t /Zc:forScope /Zc:inline /Fo"X64\RELEASE\\" /Fd"X64\RELEASE\VC140.PDB" /Gd /TP D:\_チーム制作\チーム制作後期2回目\3DGP.00\IMGUI\IMGUI.CPP
^D:\_チーム制作\チーム制作後期2回目\3DGP.00\IMGUI\IMGUI_DEMO.CPP
/c /I".\DIRECTXTK-MASTER\INC" /I".\FBX SDK\2016.1.2\INCLUDE" /Zi /nologo /W3 /WX- /sdl /O2 /Oi /GL /D NDEBUG /D _WINDOWS /D _UNICODE /D UNICODE /Gm- /EHsc /MD /GS /Gy /fp:precise /Zc:wchar_t /Zc:forScope /Zc:inline /Fo"X64\RELEASE\\" /Fd"X64\RELEASE\VC140.PDB" /Gd /TP D:\_チーム制作\チーム制作後期2回目\3DGP.00\IMGUI\IMGUI_DEMO.CPP
^D:\_チーム制作\チーム制作後期2回目\3DGP.00\IMGUI\IMGUI_DRAW.CPP
/c /I".\DIRECTXTK-MASTER\INC" /I".\FBX SDK\2016.1.2\INCLUDE" /Zi /nologo /W3 /WX- /sdl /O2 /Oi /GL /D NDEBUG /D _WINDOWS /D _UNICODE /D UNICODE /Gm- /EHsc /MD /GS /Gy /fp:precise /Zc:wchar_t /Zc:forScope /Zc:inline /Fo"X64\RELEASE\\" /Fd"X64\RELEASE\VC140.PDB" /Gd /TP D:\_チーム制作\チーム制作後期2回目\3DGP.00\IMGUI\IMGUI_DRAW.CPP
^D:\_チーム制作\チーム制作後期2回目\3DGP.00\IMGUI\IMGUI_IMPL_DX11.CPP
/c /I".\DIRECTXTK-MASTER\INC" /I".\FBX SDK\2016.1.2\INCLUDE" /Zi /nologo /W3 /WX- /sdl /O2 /Oi /GL /D NDEBUG /D _WINDOWS /D _UNICODE /D UNICODE /Gm- /EHsc /MD /GS /Gy /fp:precise /Zc:wchar_t /Zc:forScope /Zc:inline /Fo"X64\RELEASE\\" /Fd"X64\RELEASE\VC140.PDB" /Gd /TP D:\_チーム制作\チーム制作後期2回目\3DGP.00\IMGUI\IMGUI_IMPL_DX11.CPP
^D:\_チーム制作\チーム制作後期2回目\3DGP.00\IMGUI\IMGUI_IMPL_WIN32.CPP
/c /I".\DIRECTXTK-MASTER\INC" /I".\FBX SDK\2016.1.2\INCLUDE" /Zi /nologo /W3 /WX- /sdl /O2 /Oi /GL /D NDEBUG /D _WINDOWS /D _UNICODE /D UNICODE /Gm- /EHsc /MD /GS /Gy /fp:precise /Zc:wchar_t /Zc:forScope /Zc:inline /Fo"X64\RELEASE\\" /Fd"X64\RELEASE\VC140.PDB" /Gd /TP D:\_チーム制作\チーム制作後期2回目\3DGP.00\IMGUI\IMGUI_IMPL_WIN32.CPP
^D:\_チーム制作\チーム制作後期2回目\3DGP.00\IMGUI\IMGUI_WIDGETS.CPP
/c /I".\DIRECTXTK-MASTER\INC" /I".\FBX SDK\2016.1.2\INCLUDE" /Zi /nologo /W3 /WX- /sdl /O2 /Oi /GL /D NDEBUG /D _WINDOWS /D _UNICODE /D UNICODE /Gm- /EHsc /MD /GS /Gy /fp:precise /Zc:wchar_t /Zc:forScope /Zc:inline /Fo"X64\RELEASE\\" /Fd"X64\RELEASE\VC140.PDB" /Gd /TP D:\_チーム制作\チーム制作後期2回目\3DGP.00\IMGUI\IMGUI_WIDGETS.CPP
^D:\_チーム制作\チーム制作後期2回目\3DGP.00\LOGGER.CPP
/c /I".\DIRECTXTK-MASTER\INC" /I".\FBX SDK\2016.1.2\INCLUDE" /Zi /nologo /W3 /WX- /sdl /O2 /Oi /GL /D NDEBUG /D _WINDOWS /D _UNICODE /D UNICODE /Gm- /EHsc /MD /GS /Gy /fp:precise /Zc:wchar_t /Zc:forScope /Zc:inline /Fo"X64\RELEASE\\" /Fd"X64\RELEASE\VC140.PDB" /Gd /TP D:\_チーム制作\チーム制作後期2回目\3DGP.00\LOGGER.CPP
^D:\_チーム制作\チーム制作後期2回目\3DGP.00\MAIN.CPP
/c /I".\DIRECTXTK-MASTER\INC" /I".\FBX SDK\2016.1.2\INCLUDE" /Zi /nologo /W3 /WX- /sdl /O2 /Oi /GL /D NDEBUG /D _WINDOWS /D _UNICODE /D UNICODE /Gm- /EHsc /MD /GS /Gy /fp:precise /Zc:wchar_t /Zc:forScope /Zc:inline /Fo"X64\RELEASE\\" /Fd"X64\RELEASE\VC140.PDB" /Gd /TP D:\_チーム制作\チーム制作後期2回目\3DGP.00\MAIN.CPP
^D:\_チーム制作\チーム制作後期2回目\3DGP.00\MODEL.CPP
/c /I".\DIRECTXTK-MASTER\INC" /I".\FBX SDK\2016.1.2\INCLUDE" /Zi /nologo /W3 /WX- /sdl /O2 /Oi /GL /D NDEBUG /D _WINDOWS /D _UNICODE /D UNICODE /Gm- /EHsc /MD /GS /Gy /fp:precise /Zc:wchar_t /Zc:forScope /Zc:inline /Fo"X64\RELEASE\\" /Fd"X64\RELEASE\VC140.PDB" /Gd /TP D:\_チーム制作\チーム制作後期2回目\3DGP.00\MODEL.CPP
^D:\_チーム制作\チーム制作後期2回目\3DGP.00\MODEL_RENDERER.CPP
/c /I".\DIRECTXTK-MASTER\INC" /I".\FBX SDK\2016.1.2\INCLUDE" /Zi /nologo /W3 /WX- /sdl /O2 /Oi /GL /D NDEBUG /D _WINDOWS /D _UNICODE /D UNICODE /Gm- /EHsc /MD /GS /Gy /fp:precise /Zc:wchar_t /Zc:forScope /Zc:inline /Fo"X64\RELEASE\\" /Fd"X64\RELEASE\VC140.PDB" /Gd /TP D:\_チーム制作\チーム制作後期2回目\3DGP.00\MODEL_RENDERER.CPP
^D:\_チーム制作\チーム制作後期2回目\3DGP.00\MODEL_RESOURCE.CPP
/c /I".\DIRECTXTK-MASTER\INC" /I".\FBX SDK\2016.1.2\INCLUDE" /Zi /nologo /W3 /WX- /sdl /O2 /Oi /GL /D NDEBUG /D _WINDOWS /D _UNICODE /D UNICODE /Gm- /EHsc /MD /GS /Gy /fp:precise /Zc:wchar_t /Zc:forScope /Zc:inline /Fo"X64\RELEASE\\" /Fd"X64\RELEASE\VC140.PDB" /Gd /TP D:\_チーム制作\チーム制作後期2回目\3DGP.00\MODEL_RESOURCE.CPP
^D:\_チーム制作\チーム制作後期2回目\3DGP.00\RESOURCEMANAGER.CPP
/c /I".\DIRECTXTK-MASTER\INC" /I".\FBX SDK\2016.1.2\INCLUDE" /Zi /nologo /W3 /WX- /sdl /O2 /Oi /GL /D NDEBUG /D _WINDOWS /D _UNICODE /D UNICODE /Gm- /EHsc /MD /GS /Gy /fp:precise /Zc:wchar_t /Zc:forScope /Zc:inline /Fo"X64\RELEASE\\" /Fd"X64\RELEASE\VC140.PDB" /Gd /TP D:\_チーム制作\チーム制作後期2回目\3DGP.00\RESOURCEMANAGER.CPP
^D:\_チーム制作\チーム制作後期2回目\3DGP.00\SKINNED_MESH.CPP
/c /I".\DIRECTXTK-MASTER\INC" /I".\FBX SDK\2016.1.2\INCLUDE" /Zi /nologo /W3 /WX- /sdl /O2 /Oi /GL /D NDEBUG /D _WINDOWS /D _UNICODE /D UNICODE /Gm- /EHsc /MD /GS /Gy /fp:precise /Zc:wchar_t /Zc:forScope /Zc:inline /Fo"X64\RELEASE\\" /Fd"X64\RELEASE\VC140.PDB" /Gd /TP D:\_チーム制作\チーム制作後期2回目\3DGP.00\SKINNED_MESH.CPP
^D:\_チーム制作\チーム制作後期2回目\3DGP.00\SOUND.CPP
/c /I".\DIRECTXTK-MASTER\INC" /I".\FBX SDK\2016.1.2\INCLUDE" /Zi /nologo /W3 /WX- /sdl /O2 /Oi /GL /D NDEBUG /D _WINDOWS /D _UNICODE /D UNICODE /Gm- /EHsc /MD /GS /Gy /fp:precise /Zc:wchar_t /Zc:forScope /Zc:inline /Fo"X64\RELEASE\\" /Fd"X64\RELEASE\VC140.PDB" /Gd /TP D:\_チーム制作\チーム制作後期2回目\3DGP.00\SOUND.CPP
^D:\_チーム制作\チーム制作後期2回目\3DGP.00\SOUND_BUFFER.CPP
/c /I".\DIRECTXTK-MASTER\INC" /I".\FBX SDK\2016.1.2\INCLUDE" /Zi /nologo /W3 /WX- /sdl /O2 /Oi /GL /D NDEBUG /D _WINDOWS /D _UNICODE /D UNICODE /Gm- /EHsc /MD /GS /Gy /fp:precise /Zc:wchar_t /Zc:forScope /Zc:inline /Fo"X64\RELEASE\\" /Fd"X64\RELEASE\VC140.PDB" /Gd /TP D:\_チーム制作\チーム制作後期2回目\3DGP.00\SOUND_BUFFER.CPP
^D:\_チーム制作\チーム制作後期2回目\3DGP.00\SPRITE.CPP
/c /I".\DIRECTXTK-MASTER\INC" /I".\FBX SDK\2016.1.2\INCLUDE" /Zi /nologo /W3 /WX- /sdl /O2 /Oi /GL /D NDEBUG /D _WINDOWS /D _UNICODE /D UNICODE /Gm- /EHsc /MD /GS /Gy /fp:precise /Zc:wchar_t /Zc:forScope /Zc:inline /Fo"X64\RELEASE\\" /Fd"X64\RELEASE\VC140.PDB" /Gd /TP D:\_チーム制作\チーム制作後期2回目\3DGP.00\SPRITE.CPP
^D:\_チーム制作\チーム制作後期2回目\3DGP.00\STATIC_MESH.CPP
/c /I".\DIRECTXTK-MASTER\INC" /I".\FBX SDK\2016.1.2\INCLUDE" /Zi /nologo /W3 /WX- /sdl /O2 /Oi /GL /D NDEBUG /D _WINDOWS /D _UNICODE /D UNICODE /Gm- /EHsc /MD /GS /Gy /fp:precise /Zc:wchar_t /Zc:forScope /Zc:inline /Fo"X64\RELEASE\\" /Fd"X64\RELEASE\VC140.PDB" /Gd /TP D:\_チーム制作\チーム制作後期2回目\3DGP.00\STATIC_MESH.CPP
^D:\_チーム制作\チーム制作後期2回目\3DGP.00\FRAMEWORK.CPP
/c /I".\DIRECTXTK-MASTER\INC" /I".\FBX SDK\2016.1.2\INCLUDE" /Zi /nologo /W3 /WX- /sdl /O2 /Oi /GL /D NDEBUG /D _WINDOWS /D _UNICODE /D UNICODE /Gm- /EHsc /MD /GS /Gy /fp:precise /Zc:wchar_t /Zc:forScope /Zc:inline /Fo"X64\RELEASE\\" /Fd"X64\RELEASE\VC140.PDB" /Gd /TP D:\_チーム制作\チーム制作後期2回目\3DGP.00\FRAMEWORK.CPP
^D:\_チーム制作\チーム制作後期2回目\3DGP.00\SCENE_GAME.CPP
/c /I".\DIRECTXTK-MASTER\INC" /I".\FBX SDK\2016.1.2\INCLUDE" /Zi /nologo /W3 /WX- /sdl /O2 /Oi /GL /D NDEBUG /D _WINDOWS /D _UNICODE /D UNICODE /Gm- /EHsc /MD /GS /Gy /fp:precise /Zc:wchar_t /Zc:forScope /Zc:inline /Fo"X64\RELEASE\\" /Fd"X64\RELEASE\VC140.PDB" /Gd /TP D:\_チーム制作\チーム制作後期2回目\3DGP.00\SCENE_GAME.CPP
^D:\_チーム制作\チーム制作後期2回目\3DGP.00\SCENE_MANAGER.CPP
/c /I".\DIRECTXTK-MASTER\INC" /I".\FBX SDK\2016.1.2\INCLUDE" /Zi /nologo /W3 /WX- /sdl /O2 /Oi /GL /D NDEBUG /D _WINDOWS /D _UNICODE /D UNICODE /Gm- /EHsc /MD /GS /Gy /fp:precise /Zc:wchar_t /Zc:forScope /Zc:inline /Fo"X64\RELEASE\\" /Fd"X64\RELEASE\VC140.PDB" /Gd /TP D:\_チーム制作\チーム制作後期2回目\3DGP.00\SCENE_MANAGER.CPP
^D:\_チーム制作\チーム制作後期2回目\3DGP.00\SCENE_TITLE.CPP
/c /I".\DIRECTXTK-MASTER\INC" /I".\FBX SDK\2016.1.2\INCLUDE" /Zi /nologo /W3 /WX- /sdl /O2 /Oi /GL /D NDEBUG /D _WINDOWS /D _UNICODE /D UNICODE /Gm- /EHsc /MD /GS /Gy /fp:precise /Zc:wchar_t /Zc:forScope /Zc:inline /Fo"X64\RELEASE\\" /Fd"X64\RELEASE\VC140.PDB" /Gd /TP D:\_チーム制作\チーム制作後期2回目\3DGP.00\SCENE_TITLE.CPP
^D:\_チーム制作\チーム制作後期2回目\3DGP.00\ENEMY.CPP
/c /I".\DIRECTXTK-MASTER\INC" /I".\FBX SDK\2016.1.2\INCLUDE" /Zi /nologo /W3 /WX- /sdl /O2 /Oi /GL /D NDEBUG /D _WINDOWS /D _UNICODE /D UNICODE /Gm- /EHsc /MD /GS /Gy /fp:precise /Zc:wchar_t /Zc:forScope /Zc:inline /Fo"X64\RELEASE\\" /Fd"X64\RELEASE\VC140.PDB" /Gd /TP D:\_チーム制作\チーム制作後期2回目\3DGP.00\ENEMY.CPP
^D:\授業\自作ライブラリ\自作\3DGP.00\BLENDSTATE.CPP
/c /I".\DIRECTXTK-MASTER\INC" /I.\IMGUI /I".\FBX SDK\2016.1.2\INCLUDE" /Zi /nologo /W3 /WX- /diagnostics:column /sdl /O2 /Oi /D NDEBUG /D _WINDOWS /D _UNICODE /D UNICODE /Gm- /EHsc /MD /GS /Gy /fp:precise /Zc:wchar_t /Zc:forScope /Zc:inline /Fo"X64\RELEASE\\" /Fd"X64\RELEASE\VC142.PDB" /Gd /TP /FC D:\授業\自作ライブラリ\自作\3DGP.00\BLENDSTATE.CPP
^D:\授業\自作ライブラリ\自作\3DGP.00\BOARD.CPP
/c /I".\DIRECTXTK-MASTER\INC" /I.\IMGUI /I".\FBX SDK\2016.1.2\INCLUDE" /Zi /nologo /W3 /WX- /diagnostics:column /sdl /O2 /Oi /D NDEBUG /D _WINDOWS /D _UNICODE /D UNICODE /Gm- /EHsc /MD /GS /Gy /fp:precise /Zc:wchar_t /Zc:forScope /Zc:inline /Fo"X64\RELEASE\\" /Fd"X64\RELEASE\VC142.PDB" /Gd /TP /FC D:\授業\自作ライブラリ\自作\3DGP.00\BOARD.CPP
^D:\授業\自作ライブラリ\自作\3DGP.00\CAMERA.CPP
/c /I".\DIRECTXTK-MASTER\INC" /I.\IMGUI /I".\FBX SDK\2016.1.2\INCLUDE" /Zi /nologo /W3 /WX- /diagnostics:column /sdl /O2 /Oi /D NDEBUG /D _WINDOWS /D _UNICODE /D UNICODE /Gm- /EHsc /MD /GS /Gy /fp:precise /Zc:wchar_t /Zc:forScope /Zc:inline /Fo"X64\RELEASE\\" /Fd"X64\RELEASE\VC142.PDB" /Gd /TP /FC D:\授業\自作ライブラリ\自作\3DGP.00\CAMERA.CPP
^D:\授業\自作ライブラリ\自作\3DGP.00\FBX_LOAD.CPP
/c /I".\DIRECTXTK-MASTER\INC" /I.\IMGUI /I".\FBX SDK\2016.1.2\INCLUDE" /Zi /nologo /W3 /WX- /diagnostics:column /sdl /O2 /Oi /D NDEBUG /D _WINDOWS /D _UNICODE /D UNICODE /Gm- /EHsc /MD /GS /Gy /fp:precise /Zc:wchar_t /Zc:forScope /Zc:inline /Fo"X64\RELEASE\\" /Fd"X64\RELEASE\VC142.PDB" /Gd /TP /FC D:\授業\自作ライブラリ\自作\3DGP.00\FBX_LOAD.CPP
^D:\授業\自作ライブラリ\自作\3DGP.00\GEOMETRIC_PRIMITIVE.CPP
/c /I".\DIRECTXTK-MASTER\INC" /I.\IMGUI /I".\FBX SDK\2016.1.2\INCLUDE" /Zi /nologo /W3 /WX- /diagnostics:column /sdl /O2 /Oi /D NDEBUG /D _WINDOWS /D _UNICODE /D UNICODE /Gm- /EHsc /MD /GS /Gy /fp:precise /Zc:wchar_t /Zc:forScope /Zc:inline /Fo"X64\RELEASE\\" /Fd"X64\RELEASE\VC142.PDB" /Gd /TP /FC D:\授業\自作ライブラリ\自作\3DGP.00\GEOMETRIC_PRIMITIVE.CPP
^D:\授業\自作ライブラリ\自作\3DGP.00\IMGUI\IMGUI.CPP
/c /I".\DIRECTXTK-MASTER\INC" /I.\IMGUI /I".\FBX SDK\2016.1.2\INCLUDE" /Zi /nologo /W3 /WX- /diagnostics:column /sdl /O2 /Oi /D NDEBUG /D _WINDOWS /D _UNICODE /D UNICODE /Gm- /EHsc /MD /GS /Gy /fp:precise /Zc:wchar_t /Zc:forScope /Zc:inline /Fo"X64\RELEASE\\" /Fd"X64\RELEASE\VC142.PDB" /Gd /TP /FC D:\授業\自作ライブラリ\自作\3DGP.00\IMGUI\IMGUI.CPP
^D:\授業\自作ライブラリ\自作\3DGP.00\IMGUI\IMGUI_DEMO.CPP
/c /I".\DIRECTXTK-MASTER\INC" /I.\IMGUI /I".\FBX SDK\2016.1.2\INCLUDE" /Zi /nologo /W3 /WX- /diagnostics:column /sdl /O2 /Oi /D NDEBUG /D _WINDOWS /D _UNICODE /D UNICODE /Gm- /EHsc /MD /GS /Gy /fp:precise /Zc:wchar_t /Zc:forScope /Zc:inline /Fo"X64\RELEASE\\" /Fd"X64\RELEASE\VC142.PDB" /Gd /TP /FC D:\授業\自作ライブラリ\自作\3DGP.00\IMGUI\IMGUI_DEMO.CPP
^D:\授業\自作ライブラリ\自作\3DGP.00\IMGUI\IMGUI_DRAW.CPP
/c /I".\DIRECTXTK-MASTER\INC" /I.\IMGUI /I".\FBX SDK\2016.1.2\INCLUDE" /Zi /nologo /W3 /WX- /diagnostics:column /sdl /O2 /Oi /D NDEBUG /D _WINDOWS /D _UNICODE /D UNICODE /Gm- /EHsc /MD /GS /Gy /fp:precise /Zc:wchar_t /Zc:forScope /Zc:inline /Fo"X64\RELEASE\\" /Fd"X64\RELEASE\VC142.PDB" /Gd /TP /FC D:\授業\自作ライブラリ\自作\3DGP.00\IMGUI\IMGUI_DRAW.CPP
^D:\授業\自作ライブラリ\自作\3DGP.00\IMGUI\IMGUI_IMPL_DX11.CPP
/c /I".\DIRECTXTK-MASTER\INC" /I.\IMGUI /I".\FBX SDK\2016.1.2\INCLUDE" /Zi /nologo /W3 /WX- /diagnostics:column /sdl /O2 /Oi /D NDEBUG /D _WINDOWS /D _UNICODE /D UNICODE /Gm- /EHsc /MD /GS /Gy /fp:precise /Zc:wchar_t /Zc:forScope /Zc:inline /Fo"X64\RELEASE\\" /Fd"X64\RELEASE\VC142.PDB" /Gd /TP /FC D:\授業\自作ライブラリ\自作\3DGP.00\IMGUI\IMGUI_IMPL_DX11.CPP
^D:\授業\自作ライブラリ\自作\3DGP.00\IMGUI\IMGUI_IMPL_WIN32.CPP
/c /I".\DIRECTXTK-MASTER\INC" /I.\IMGUI /I".\FBX SDK\2016.1.2\INCLUDE" /Zi /nologo /W3 /WX- /diagnostics:column /sdl /O2 /Oi /D NDEBUG /D _WINDOWS /D _UNICODE /D UNICODE /Gm- /EHsc /MD /GS /Gy /fp:precise /Zc:wchar_t /Zc:forScope /Zc:inline /Fo"X64\RELEASE\\" /Fd"X64\RELEASE\VC142.PDB" /Gd /TP /FC D:\授業\自作ライブラリ\自作\3DGP.00\IMGUI\IMGUI_IMPL_WIN32.CPP
^D:\授業\自作ライブラリ\自作\3DGP.00\IMGUI\IMGUI_WIDGETS.CPP
/c /I".\DIRECTXTK-MASTER\INC" /I.\IMGUI /I".\FBX SDK\2016.1.2\INCLUDE" /Zi /nologo /W3 /WX- /diagnostics:column /sdl /O2 /Oi /D NDEBUG /D _WINDOWS /D _UNICODE /D UNICODE /Gm- /EHsc /MD /GS /Gy /fp:precise /Zc:wchar_t /Zc:forScope /Zc:inline /Fo"X64\RELEASE\\" /Fd"X64\RELEASE\VC142.PDB" /Gd /TP /FC D:\授業\自作ライブラリ\自作\3DGP.00\IMGUI\IMGUI_WIDGETS.CPP
^D:\授業\自作ライブラリ\自作\3DGP.00\LOGGER.CPP
/c /I".\DIRECTXTK-MASTER\INC" /I.\IMGUI /I".\FBX SDK\2016.1.2\INCLUDE" /Zi /nologo /W3 /WX- /diagnostics:column /sdl /O2 /Oi /D NDEBUG /D _WINDOWS /D _UNICODE /D UNICODE /Gm- /EHsc /MD /GS /Gy /fp:precise /Zc:wchar_t /Zc:forScope /Zc:inline /Fo"X64\RELEASE\\" /Fd"X64\RELEASE\VC142.PDB" /Gd /TP /FC D:\授業\自作ライブラリ\自作\3DGP.00\LOGGER.CPP
^D:\授業\自作ライブラリ\自作\3DGP.00\MAIN.CPP
/c /I".\DIRECTXTK-MASTER\INC" /I.\IMGUI /I".\FBX SDK\2016.1.2\INCLUDE" /Zi /nologo /W3 /WX- /diagnostics:column /sdl /O2 /Oi /D NDEBUG /D _WINDOWS /D _UNICODE /D UNICODE /Gm- /EHsc /MD /GS /Gy /fp:precise /Zc:wchar_t /Zc:forScope /Zc:inline /Fo"X64\RELEASE\\" /Fd"X64\RELEASE\VC142.PDB" /Gd /TP /FC D:\授業\自作ライブラリ\自作\3DGP.00\MAIN.CPP
^D:\授業\自作ライブラリ\自作\3DGP.00\MODEL.CPP
/c /I".\DIRECTXTK-MASTER\INC" /I.\IMGUI /I".\FBX SDK\2016.1.2\INCLUDE" /Zi /nologo /W3 /WX- /diagnostics:column /sdl /O2 /Oi /D NDEBUG /D _WINDOWS /D _UNICODE /D UNICODE /Gm- /EHsc /MD /GS /Gy /fp:precise /Zc:wchar_t /Zc:forScope /Zc:inline /Fo"X64\RELEASE\\" /Fd"X64\RELEASE\VC142.PDB" /Gd /TP /FC D:\授業\自作ライブラリ\自作\3DGP.00\MODEL.CPP
^D:\授業\自作ライブラリ\自作\3DGP.00\MODEL_RENDERER.CPP
/c /I".\DIRECTXTK-MASTER\INC" /I.\IMGUI /I".\FBX SDK\2016.1.2\INCLUDE" /Zi /nologo /W3 /WX- /diagnostics:column /sdl /O2 /Oi /D NDEBUG /D _WINDOWS /D _UNICODE /D UNICODE /Gm- /EHsc /MD /GS /Gy /fp:precise /Zc:wchar_t /Zc:forScope /Zc:inline /Fo"X64\RELEASE\\" /Fd"X64\RELEASE\VC142.PDB" /Gd /TP /FC D:\授業\自作ライブラリ\自作\3DGP.00\MODEL_RENDERER.CPP
^D:\授業\自作ライブラリ\自作\3DGP.00\MODEL_RESOURCE.CPP
/c /I".\DIRECTXTK-MASTER\INC" /I.\IMGUI /I".\FBX SDK\2016.1.2\INCLUDE" /Zi /nologo /W3 /WX- /diagnostics:column /sdl /O2 /Oi /D NDEBUG /D _WINDOWS /D _UNICODE /D UNICODE /Gm- /EHsc /MD /GS /Gy /fp:precise /Zc:wchar_t /Zc:forScope /Zc:inline /Fo"X64\RELEASE\\" /Fd"X64\RELEASE\VC142.PDB" /Gd /TP /FC D:\授業\自作ライブラリ\自作\3DGP.00\MODEL_RESOURCE.CPP
^D:\授業\自作ライブラリ\自作\3DGP.00\RESOURCEMANAGER.CPP
/c /I".\DIRECTXTK-MASTER\INC" /I.\IMGUI /I".\FBX SDK\2016.1.2\INCLUDE" /Zi /nologo /W3 /WX- /diagnostics:column /sdl /O2 /Oi /D NDEBUG /D _WINDOWS /D _UNICODE /D UNICODE /Gm- /EHsc /MD /GS /Gy /fp:precise /Zc:wchar_t /Zc:forScope /Zc:inline /Fo"X64\RELEASE\\" /Fd"X64\RELEASE\VC142.PDB" /Gd /TP /FC D:\授業\自作ライブラリ\自作\3DGP.00\RESOURCEMANAGER.CPP
^D:\授業\自作ライブラリ\自作\3DGP.00\SCENE_GAME.CPP
/c /I".\DIRECTXTK-MASTER\INC" /I.\IMGUI /I".\FBX SDK\2016.1.2\INCLUDE" /Zi /nologo /W3 /WX- /diagnostics:column /sdl /O2 /Oi /D NDEBUG /D _WINDOWS /D _UNICODE /D UNICODE /Gm- /EHsc /MD /GS /Gy /fp:precise /Zc:wchar_t /Zc:forScope /Zc:inline /Fo"X64\RELEASE\\" /Fd"X64\RELEASE\VC142.PDB" /Gd /TP /FC D:\授業\自作ライブラリ\自作\3DGP.00\SCENE_GAME.CPP
^D:\授業\自作ライブラリ\自作\3DGP.00\SCENE_MANAGER.CPP
/c /I".\DIRECTXTK-MASTER\INC" /I.\IMGUI /I".\FBX SDK\2016.1.2\INCLUDE" /Zi /nologo /W3 /WX- /diagnostics:column /sdl /O2 /Oi /D NDEBUG /D _WINDOWS /D _UNICODE /D UNICODE /Gm- /EHsc /MD /GS /Gy /fp:precise /Zc:wchar_t /Zc:forScope /Zc:inline /Fo"X64\RELEASE\\" /Fd"X64\RELEASE\VC142.PDB" /Gd /TP /FC D:\授業\自作ライブラリ\自作\3DGP.00\SCENE_MANAGER.CPP
^D:\授業\自作ライブラリ\自作\3DGP.00\SKINNED_MESH.CPP
/c /I".\DIRECTXTK-MASTER\INC" /I.\IMGUI /I".\FBX SDK\2016.1.2\INCLUDE" /Zi /nologo /W3 /WX- /diagnostics:column /sdl /O2 /Oi /D NDEBUG /D _WINDOWS /D _UNICODE /D UNICODE /Gm- /EHsc /MD /GS /Gy /fp:precise /Zc:wchar_t /Zc:forScope /Zc:inline /Fo"X64\RELEASE\\" /Fd"X64\RELEASE\VC142.PDB" /Gd /TP /FC D:\授業\自作ライブラリ\自作\3DGP.00\SKINNED_MESH.CPP
^D:\授業\自作ライブラリ\自作\3DGP.00\SOUND.CPP
/c /I".\DIRECTXTK-MASTER\INC" /I.\IMGUI /I".\FBX SDK\2016.1.2\INCLUDE" /Zi /nologo /W3 /WX- /diagnostics:column /sdl /O2 /Oi /D NDEBUG /D _WINDOWS /D _UNICODE /D UNICODE /Gm- /EHsc /MD /GS /Gy /fp:precise /Zc:wchar_t /Zc:forScope /Zc:inline /Fo"X64\RELEASE\\" /Fd"X64\RELEASE\VC142.PDB" /Gd /TP /FC D:\授業\自作ライブラリ\自作\3DGP.00\SOUND.CPP
^D:\授業\自作ライブラリ\自作\3DGP.00\SOUND_BUFFER.CPP
/c /I".\DIRECTXTK-MASTER\INC" /I.\IMGUI /I".\FBX SDK\2016.1.2\INCLUDE" /Zi /nologo /W3 /WX- /diagnostics:column /sdl /O2 /Oi /D NDEBUG /D _WINDOWS /D _UNICODE /D UNICODE /Gm- /EHsc /MD /GS /Gy /fp:precise /Zc:wchar_t /Zc:forScope /Zc:inline /Fo"X64\RELEASE\\" /Fd"X64\RELEASE\VC142.PDB" /Gd /TP /FC D:\授業\自作ライブラリ\自作\3DGP.00\SOUND_BUFFER.CPP
^D:\授業\自作ライブラリ\自作\3DGP.00\SPRITE.CPP
/c /I".\DIRECTXTK-MASTER\INC" /I.\IMGUI /I".\FBX SDK\2016.1.2\INCLUDE" /Zi /nologo /W3 /WX- /diagnostics:column /sdl /O2 /Oi /D NDEBUG /D _WINDOWS /D _UNICODE /D UNICODE /Gm- /EHsc /MD /GS /Gy /fp:precise /Zc:wchar_t /Zc:forScope /Zc:inline /Fo"X64\RELEASE\\" /Fd"X64\RELEASE\VC142.PDB" /Gd /TP /FC D:\授業\自作ライブラリ\自作\3DGP.00\SPRITE.CPP
^D:\授業\自作ライブラリ\自作\3DGP.00\STATIC_MESH.CPP
/c /I".\DIRECTXTK-MASTER\INC" /I.\IMGUI /I".\FBX SDK\2016.1.2\INCLUDE" /Zi /nologo /W3 /WX- /diagnostics:column /sdl /O2 /Oi /D NDEBUG /D _WINDOWS /D _UNICODE /D UNICODE /Gm- /EHsc /MD /GS /Gy /fp:precise /Zc:wchar_t /Zc:forScope /Zc:inline /Fo"X64\RELEASE\\" /Fd"X64\RELEASE\VC142.PDB" /Gd /TP /FC D:\授業\自作ライブラリ\自作\3DGP.00\STATIC_MESH.CPP
^D:\授業\自作ライブラリ\自作\3DGP.00\SCENE_TITLE.CPP
/c /I".\DIRECTXTK-MASTER\INC" /I.\IMGUI /I".\FBX SDK\2016.1.2\INCLUDE" /Zi /nologo /W3 /WX- /diagnostics:column /sdl /O2 /Oi /D NDEBUG /D _WINDOWS /D _UNICODE /D UNICODE /Gm- /EHsc /MD /GS /Gy /fp:precise /Zc:wchar_t /Zc:forScope /Zc:inline /Fo"X64\RELEASE\\" /Fd"X64\RELEASE\VC142.PDB" /Gd /TP /FC D:\授業\自作ライブラリ\自作\3DGP.00\SCENE_TITLE.CPP
^D:\授業\自作ライブラリ\自作\3DGP.00\FRAMEWORK.CPP
/c /I".\DIRECTXTK-MASTER\INC" /I.\IMGUI /I".\FBX SDK\2016.1.2\INCLUDE" /Zi /nologo /W3 /WX- /diagnostics:column /sdl /O2 /Oi /D NDEBUG /D _WINDOWS /D _UNICODE /D UNICODE /Gm- /EHsc /MD /GS /Gy /fp:precise /Zc:wchar_t /Zc:forScope /Zc:inline /Fo"X64\RELEASE\\" /Fd"X64\RELEASE\VC142.PDB" /Gd /TP /FC D:\授業\自作ライブラリ\自作\3DGP.00\FRAMEWORK.CPP
