^D:\授業\自作ライブラリ\自作\3DGP.00\BOARD.CPP|D:\授業\自作ライブラリ\自作\3DGP.00\CAMERA.CPP|D:\授業\自作ライブラリ\自作\3DGP.00\FRAMEWORK.CPP|D:\授業\自作ライブラリ\自作\3DGP.00\MAIN.CPP|D:\授業\自作ライブラリ\自作\3DGP.00\RESOURCEMANAGER.CPP|D:\授業\自作ライブラリ\自作\3DGP.00\SCENE_GAME.CPP|D:\授業\自作ライブラリ\自作\3DGP.00\SCENE_MANAGER.CPP|D:\授業\自作ライブラリ\自作\3DGP.00\SCENE_TITLE.CPP|D:\授業\自作ライブラリ\自作\3DGP.00\SKINNED_MESH.CPP|D:\授業\自作ライブラリ\自作\3DGP.00\SPRITE.CPP|D:\授業\自作ライブラリ\自作\3DGP.00\STATIC_MESH.CPP
D:\授業\自作ライブラリ\自作\3DGP.00\X64\RELEASE\VC142.PDB
D:\授業\自作ライブラリ\自作\3DGP.00\X64\RELEASE\SPRITE.OBJ
D:\授業\自作ライブラリ\自作\3DGP.00\X64\RELEASE\SKINNED_MESH.OBJ
D:\授業\自作ライブラリ\自作\3DGP.00\X64\RELEASE\SCENE_MANAGER.OBJ
D:\授業\自作ライブラリ\自作\3DGP.00\X64\RELEASE\SCENE_GAME.OBJ
D:\授業\自作ライブラリ\自作\3DGP.00\X64\RELEASE\RESOURCEMANAGER.OBJ
D:\授業\自作ライブラリ\自作\3DGP.00\X64\RELEASE\FRAMEWORK.OBJ
D:\授業\自作ライブラリ\自作\3DGP.00\X64\RELEASE\MAIN.OBJ
D:\授業\自作ライブラリ\自作\3DGP.00\X64\RELEASE\CAMERA.OBJ
D:\授業\自作ライブラリ\自作\3DGP.00\X64\RELEASE\BOARD.OBJ
^D:\授業\自作ライブラリ\自作\3DGP.00\FRAMEWORK.CPP|D:\授業\自作ライブラリ\自作\3DGP.00\MAIN.CPP|D:\授業\自作ライブラリ\自作\3DGP.00\SCENE_TITLE.CPP|D:\授業\自作ライブラリ\自作\3DGP.00\STATIC_MESH.CPP
D:\授業\自作ライブラリ\自作\3DGP.00\X64\RELEASE\VC142.PDB
D:\授業\自作ライブラリ\自作\3DGP.00\X64\RELEASE\STATIC_MESH.OBJ
D:\授業\自作ライブラリ\自作\3DGP.00\X64\RELEASE\FRAMEWORK.OBJ
D:\授業\自作ライブラリ\自作\3DGP.00\X64\RELEASE\MAIN.OBJ
^D:\授業\自作ライブラリ\自作\3DGP.00\SCENE_TITLE.CPP|D:\授業\自作ライブラリ\自作\3DGP.00\SPRITE.CPP
D:\授業\自作ライブラリ\自作\3DGP.00\X64\RELEASE\VC142.PDB
D:\授業\自作ライブラリ\自作\3DGP.00\X64\RELEASE\SPRITE.OBJ
D:\授業\自作ライブラリ\自作\3DGP.00\X64\RELEASE\SCENE_TITLE.OBJ
^D:\授業\自作ライブラリ\自作\3DGP.00\FRAMEWORK.CPP|D:\授業\自作ライブラリ\自作\3DGP.00\MAIN.CPP|D:\授業\自作ライブラリ\自作\3DGP.00\SCENE_GAME.CPP|D:\授業\自作ライブラリ\自作\3DGP.00\SCENE_MANAGER.CPP|D:\授業\自作ライブラリ\自作\3DGP.00\SCENE_TITLE.CPP|D:\授業\自作ライブラリ\自作\3DGP.00\SPRITE.CPP
D:\授業\自作ライブラリ\自作\3DGP.00\X64\RELEASE\VC142.PDB
D:\授業\自作ライブラリ\自作\3DGP.00\X64\RELEASE\SPRITE.OBJ
D:\授業\自作ライブラリ\自作\3DGP.00\X64\RELEASE\SCENE_MANAGER.OBJ
D:\授業\自作ライブラリ\自作\3DGP.00\X64\RELEASE\MAIN.OBJ
D:\授業\自作ライブラリ\自作\3DGP.00\X64\RELEASE\FRAMEWORK.OBJ
D:\授業\自作ライブラリ\自作\3DGP.00\X64\RELEASE\SCENE_TITLE.OBJ
D:\授業\自作ライブラリ\自作\3DGP.00\X64\RELEASE\SCENE_GAME.OBJ
^D:\授業\自作ライブラリ\自作\3DGP.00\BLENDSTATE.CPP|D:\授業\自作ライブラリ\自作\3DGP.00\BOARD.CPP|D:\授業\自作ライブラリ\自作\3DGP.00\CAMERA.CPP|D:\授業\自作ライブラリ\自作\3DGP.00\FBX_LOAD.CPP|D:\授業\自作ライブラリ\自作\3DGP.00\FRAMEWORK.CPP|D:\授業\自作ライブラリ\自作\3DGP.00\GEOMETRIC_PRIMITIVE.CPP|D:\授業\自作ライブラリ\自作\3DGP.00\IMGUI\IMGUI.CPP|D:\授業\自作ライブラリ\自作\3DGP.00\IMGUI\IMGUI_DEMO.CPP|D:\授業\自作ライブラリ\自作\3DGP.00\IMGUI\IMGUI_DRAW.CPP|D:\授業\自作ライブラリ\自作\3DGP.00\IMGUI\IMGUI_IMPL_DX11.CPP|D:\授業\自作ライブラリ\自作\3DGP.00\IMGUI\IMGUI_IMPL_WIN32.CPP|D:\授業\自作ライブラリ\自作\3DGP.00\IMGUI\IMGUI_WIDGETS.CPP|D:\授業\自作ライブラリ\自作\3DGP.00\LOGGER.CPP|D:\授業\自作ライブラリ\自作\3DGP.00\MAIN.CPP|D:\授業\自作ライブラリ\自作\3DGP.00\MODEL.CPP|D:\授業\自作ライブラリ\自作\3DGP.00\MODEL_RENDERER.CPP|D:\授業\自作ライブラリ\自作\3DGP.00\MODEL_RESOURCE.CPP|D:\授業\自作ライブラリ\自作\3DGP.00\RESOURCEMANAGER.CPP|D:\授業\自作ライブラリ\自作\3DGP.00\SCENE_GAME.CPP|D:\授業\自作ライブラリ\自作\3DGP.00\SCENE_MANAGER.CPP|D:\授業\自作ライブラリ\自作\3DGP.00\SCENE_TITLE.CPP|D:\授業\自作ライブラリ\自作\3DGP.00\SKINNED_MESH.CPP|D:\授業\自作ライブラリ\自作\3DGP.00\SOUND.CPP|D:\授業\自作ライブラリ\自作\3DGP.00\SOUND_BUFFER.CPP|D:\授業\自作ライブラリ\自作\3DGP.00\SPRITE.CPP|D:\授業\自作ライブラリ\自作\3DGP.00\STATIC_MESH.CPP
D:\授業\自作ライブラリ\自作\3DGP.00\X64\RELEASE\VC142.PDB
D:\授業\自作ライブラリ\自作\3DGP.00\X64\RELEASE\SCENE_MANAGER.OBJ
D:\授業\自作ライブラリ\自作\3DGP.00\X64\RELEASE\SCENE_GAME.OBJ
D:\授業\自作ライブラリ\自作\3DGP.00\X64\RELEASE\RESOURCEMANAGER.OBJ
D:\授業\自作ライブラリ\自作\3DGP.00\X64\RELEASE\MODEL_RESOURCE.OBJ
D:\授業\自作ライブラリ\自作\3DGP.00\X64\RELEASE\MODEL_RENDERER.OBJ
D:\授業\自作ライブラリ\自作\3DGP.00\X64\RELEASE\MODEL.OBJ
D:\授業\自作ライブラリ\自作\3DGP.00\X64\RELEASE\FRAMEWORK.OBJ
D:\授業\自作ライブラリ\自作\3DGP.00\X64\RELEASE\MAIN.OBJ
D:\授業\自作ライブラリ\自作\3DGP.00\X64\RELEASE\LOGGER.OBJ
D:\授業\自作ライブラリ\自作\3DGP.00\X64\RELEASE\IMGUI_WIDGETS.OBJ
D:\授業\自作ライブラリ\自作\3DGP.00\X64\RELEASE\IMGUI_IMPL_WIN32.OBJ
D:\授業\自作ライブラリ\自作\3DGP.00\X64\RELEASE\IMGUI_IMPL_DX11.OBJ
D:\授業\自作ライブラリ\自作\3DGP.00\X64\RELEASE\IMGUI_DRAW.OBJ
D:\授業\自作ライブラリ\自作\3DGP.00\X64\RELEASE\IMGUI_DEMO.OBJ
D:\授業\自作ライブラリ\自作\3DGP.00\X64\RELEASE\IMGUI.OBJ
D:\授業\自作ライブラリ\自作\3DGP.00\X64\RELEASE\GEOMETRIC_PRIMITIVE.OBJ
D:\授業\自作ライブラリ\自作\3DGP.00\X64\RELEASE\FBX_LOAD.OBJ
D:\授業\自作ライブラリ\自作\3DGP.00\X64\RELEASE\CAMERA.OBJ
D:\授業\自作ライブラリ\自作\3DGP.00\X64\RELEASE\BOARD.OBJ
D:\授業\自作ライブラリ\自作\3DGP.00\X64\RELEASE\BLENDSTATE.OBJ
D:\授業\自作ライブラリ\自作\3DGP.00\X64\RELEASE\STATIC_MESH.OBJ
D:\授業\自作ライブラリ\自作\3DGP.00\X64\RELEASE\SPRITE.OBJ
D:\授業\自作ライブラリ\自作\3DGP.00\X64\RELEASE\SOUND_BUFFER.OBJ
D:\授業\自作ライブラリ\自作\3DGP.00\X64\RELEASE\SOUND.OBJ
D:\授業\自作ライブラリ\自作\3DGP.00\X64\RELEASE\SKINNED_MESH.OBJ
D:\授業\自作ライブラリ\自作\3DGP.00\X64\RELEASE\SCENE_TITLE.OBJ
^D:\授業\自作ライブラリ\自作\3DGP.00\BLENDSTATE.CPP
D:\授業\自作ライブラリ\自作\3DGP.00\X64\RELEASE\VC142.PDB
^D:\授業\自作ライブラリ\自作\3DGP.00\BOARD.CPP
D:\授業\自作ライブラリ\自作\3DGP.00\X64\RELEASE\VC142.PDB
^D:\授業\自作ライブラリ\自作\3DGP.00\CAMERA.CPP
D:\授業\自作ライブラリ\自作\3DGP.00\X64\RELEASE\VC142.PDB
^D:\授業\自作ライブラリ\自作\3DGP.00\FBX_LOAD.CPP
D:\授業\自作ライブラリ\自作\3DGP.00\X64\RELEASE\VC142.PDB
^D:\授業\自作ライブラリ\自作\3DGP.00\GEOMETRIC_PRIMITIVE.CPP
D:\授業\自作ライブラリ\自作\3DGP.00\X64\RELEASE\VC142.PDB
^D:\授業\自作ライブラリ\自作\3DGP.00\IMGUI\IMGUI.CPP
D:\授業\自作ライブラリ\自作\3DGP.00\X64\RELEASE\VC142.PDB
^D:\授業\自作ライブラリ\自作\3DGP.00\IMGUI\IMGUI_DEMO.CPP
D:\授業\自作ライブラリ\自作\3DGP.00\X64\RELEASE\VC142.PDB
^D:\授業\自作ライブラリ\自作\3DGP.00\IMGUI\IMGUI_DRAW.CPP
D:\授業\自作ライブラリ\自作\3DGP.00\X64\RELEASE\VC142.PDB
^D:\授業\自作ライブラリ\自作\3DGP.00\IMGUI\IMGUI_IMPL_DX11.CPP
D:\授業\自作ライブラリ\自作\3DGP.00\X64\RELEASE\VC142.PDB
^D:\授業\自作ライブラリ\自作\3DGP.00\IMGUI\IMGUI_IMPL_WIN32.CPP
D:\授業\自作ライブラリ\自作\3DGP.00\X64\RELEASE\VC142.PDB
^D:\授業\自作ライブラリ\自作\3DGP.00\IMGUI\IMGUI_WIDGETS.CPP
D:\授業\自作ライブラリ\自作\3DGP.00\X64\RELEASE\VC142.PDB
^D:\授業\自作ライブラリ\自作\3DGP.00\LOGGER.CPP
D:\授業\自作ライブラリ\自作\3DGP.00\X64\RELEASE\VC142.PDB
^D:\授業\自作ライブラリ\自作\3DGP.00\MAIN.CPP
D:\授業\自作ライブラリ\自作\3DGP.00\X64\RELEASE\VC142.PDB
^D:\授業\自作ライブラリ\自作\3DGP.00\MODEL.CPP
D:\授業\自作ライブラリ\自作\3DGP.00\X64\RELEASE\VC142.PDB
^D:\授業\自作ライブラリ\自作\3DGP.00\MODEL_RENDERER.CPP
D:\授業\自作ライブラリ\自作\3DGP.00\X64\RELEASE\VC142.PDB
^D:\授業\自作ライブラリ\自作\3DGP.00\MODEL_RESOURCE.CPP
D:\授業\自作ライブラリ\自作\3DGP.00\X64\RELEASE\VC142.PDB
^D:\授業\自作ライブラリ\自作\3DGP.00\RESOURCEMANAGER.CPP
D:\授業\自作ライブラリ\自作\3DGP.00\X64\RELEASE\VC142.PDB
^D:\授業\自作ライブラリ\自作\3DGP.00\SCENE_GAME.CPP
D:\授業\自作ライブラリ\自作\3DGP.00\X64\RELEASE\VC142.PDB
^D:\授業\自作ライブラリ\自作\3DGP.00\SCENE_MANAGER.CPP
D:\授業\自作ライブラリ\自作\3DGP.00\X64\RELEASE\VC142.PDB
^D:\授業\自作ライブラリ\自作\3DGP.00\SKINNED_MESH.CPP
D:\授業\自作ライブラリ\自作\3DGP.00\X64\RELEASE\VC142.PDB
^D:\授業\自作ライブラリ\自作\3DGP.00\SOUND.CPP
D:\授業\自作ライブラリ\自作\3DGP.00\X64\RELEASE\VC142.PDB
^D:\授業\自作ライブラリ\自作\3DGP.00\SOUND_BUFFER.CPP
D:\授業\自作ライブラリ\自作\3DGP.00\X64\RELEASE\VC142.PDB
^D:\授業\自作ライブラリ\自作\3DGP.00\SPRITE.CPP
D:\授業\自作ライブラリ\自作\3DGP.00\X64\RELEASE\VC142.PDB
^D:\授業\自作ライブラリ\自作\3DGP.00\STATIC_MESH.CPP
D:\授業\自作ライブラリ\自作\3DGP.00\X64\RELEASE\VC142.PDB
^D:\授業\自作ライブラリ\自作\3DGP.00\SCENE_TITLE.CPP
D:\授業\自作ライブラリ\自作\3DGP.00\X64\RELEASE\VC142.PDB
D:\授業\自作ライブラリ\自作\3DGP.00\X64\RELEASE\SCENE_TITLE.OBJ
^D:\授業\自作ライブラリ\自作\3DGP.00\FRAMEWORK.CPP
D:\授業\自作ライブラリ\自作\3DGP.00\X64\RELEASE\VC142.PDB
D:\授業\自作ライブラリ\自作\3DGP.00\X64\RELEASE\FRAMEWORK.OBJ
