^D:\授業\自作ライブラリ\自作\3DGP.00\BOARD_PS.HLSL
D:\授業\自作ライブラリ\自作\3DGP.00\DATA\SHADER\BOARD_PS.COD
D:\授業\自作ライブラリ\自作\3DGP.00\DATA\SHADER\BOARD_PS.CSO
^D:\授業\自作ライブラリ\自作\3DGP.00\BOARD_VS.HLSL
D:\授業\自作ライブラリ\自作\3DGP.00\DATA\SHADER\BOARD_VS.COD
D:\授業\自作ライブラリ\自作\3DGP.00\DATA\SHADER\BOARD_VS.CSO
^D:\授業\自作ライブラリ\自作\3DGP.00\GEOMETRIC_PRIMITIVE_PS.HLSL
D:\授業\自作ライブラリ\自作\3DGP.00\DATA\SHADER\GEOMETRIC_PRIMITIVE_PS.COD
D:\授業\自作ライブラリ\自作\3DGP.00\DATA\SHADER\GEOMETRIC_PRIMITIVE_PS.CSO
^D:\授業\自作ライブラリ\自作\3DGP.00\GEOMETRIC_PRIMITIVE_VS.HLSL
D:\授業\自作ライブラリ\自作\3DGP.00\DATA\SHADER\GEOMETRIC_PRIMITIVE_VS.COD
D:\授業\自作ライブラリ\自作\3DGP.00\DATA\SHADER\GEOMETRIC_PRIMITIVE_VS.CSO
^D:\授業\自作ライブラリ\自作\3DGP.00\MODEL_PS.HLSL
D:\授業\自作ライブラリ\自作\3DGP.00\DATA\SHADER\MODEL_PS.COD
D:\授業\自作ライブラリ\自作\3DGP.00\DATA\SHADER\MODEL_PS.CSO
^D:\授業\自作ライブラリ\自作\3DGP.00\MODEL_VS.HLSL
D:\授業\自作ライブラリ\自作\3DGP.00\DATA\SHADER\MODEL_VS.CSO
^D:\授業\自作ライブラリ\自作\3DGP.00\SKINNED_MESH_PS.HLSL
D:\授業\自作ライブラリ\自作\3DGP.00\DATA\SHADER\SKINNED_MESH_PS.COD
D:\授業\自作ライブラリ\自作\3DGP.00\DATA\SHADER\SKINNED_MESH_PS.CSO
^D:\授業\自作ライブラリ\自作\3DGP.00\SKINNED_MESH_VS.HLSL
D:\授業\自作ライブラリ\自作\3DGP.00\DATA\SHADER\SKINNED_MESH_VS.COD
D:\授業\自作ライブラリ\自作\3DGP.00\DATA\SHADER\SKINNED_MESH_VS.CSO
^D:\授業\自作ライブラリ\自作\3DGP.00\SPRITE_PS.HLSL
D:\授業\自作ライブラリ\自作\3DGP.00\DATA\SHADER\SPRITE_PS.COD
D:\授業\自作ライブラリ\自作\3DGP.00\DATA\SHADER\SPRITE_PS.CSO
^D:\授業\自作ライブラリ\自作\3DGP.00\SPRITE_VS.HLSL
D:\授業\自作ライブラリ\自作\3DGP.00\DATA\SHADER\SPRITE_VS.COD
D:\授業\自作ライブラリ\自作\3DGP.00\DATA\SHADER\SPRITE_VS.CSO
^D:\授業\自作ライブラリ\自作\3DGP.00\STATIC_MESH_PS.HLSL
D:\授業\自作ライブラリ\自作\3DGP.00\DATA\SHADER\STATIC_MESH_PS.COD
D:\授業\自作ライブラリ\自作\3DGP.00\DATA\SHADER\STATIC_MESH_PS.CSO
^D:\授業\自作ライブラリ\自作\3DGP.00\STATIC_MESH_VS.HLSL
D:\授業\自作ライブラリ\自作\3DGP.00\DATA\SHADER\STATIC_MESH_VS.COD
