^D:\授業\自作ライブラリ\自作\3DGP.00\BOARD_PS.HLSL
C:\PROGRAM FILES (X86)\WINDOWS KITS\10\BIN\10.0.18362.0\X86\FXC.EXE
D:\授業\自作ライブラリ\自作\3DGP.00\BOARD.HLSLI
^D:\授業\自作ライブラリ\自作\3DGP.00\BOARD_VS.HLSL
C:\PROGRAM FILES (X86)\WINDOWS KITS\10\BIN\10.0.18362.0\X86\FXC.EXE
D:\授業\自作ライブラリ\自作\3DGP.00\BOARD.HLSLI
^D:\授業\自作ライブラリ\自作\3DGP.00\GEOMETRIC_PRIMITIVE_PS.HLSL
C:\PROGRAM FILES (X86)\WINDOWS KITS\10\BIN\10.0.18362.0\X86\FXC.EXE
D:\授業\自作ライブラリ\自作\3DGP.00\GEOMETRIC_PRIMITIVE.HLSLI
^D:\授業\自作ライブラリ\自作\3DGP.00\GEOMETRIC_PRIMITIVE_VS.HLSL
C:\PROGRAM FILES (X86)\WINDOWS KITS\10\BIN\10.0.18362.0\X86\FXC.EXE
D:\授業\自作ライブラリ\自作\3DGP.00\GEOMETRIC_PRIMITIVE.HLSLI
^D:\授業\自作ライブラリ\自作\3DGP.00\MODEL_PS.HLSL
C:\PROGRAM FILES (X86)\WINDOWS KITS\10\BIN\10.0.18362.0\X86\FXC.EXE
D:\授業\自作ライブラリ\自作\3DGP.00\MODEL.HLSLI
^D:\授業\自作ライブラリ\自作\3DGP.00\MODEL_VS.HLSL
C:\PROGRAM FILES (X86)\WINDOWS KITS\10\BIN\10.0.18362.0\X86\FXC.EXE
D:\授業\自作ライブラリ\自作\3DGP.00\MODEL.HLSLI
^D:\授業\自作ライブラリ\自作\3DGP.00\SKINNED_MESH_PS.HLSL
C:\PROGRAM FILES (X86)\WINDOWS KITS\10\BIN\10.0.18362.0\X86\FXC.EXE
D:\授業\自作ライブラリ\自作\3DGP.00\SKINNED_MESH.HLSLI
^D:\授業\自作ライブラリ\自作\3DGP.00\SKINNED_MESH_VS.HLSL
C:\PROGRAM FILES (X86)\WINDOWS KITS\10\BIN\10.0.18362.0\X86\FXC.EXE
D:\授業\自作ライブラリ\自作\3DGP.00\SKINNED_MESH.HLSLI
^D:\授業\自作ライブラリ\自作\3DGP.00\SPRITE_PS.HLSL
C:\PROGRAM FILES (X86)\WINDOWS KITS\10\BIN\10.0.18362.0\X86\FXC.EXE
D:\授業\自作ライブラリ\自作\3DGP.00\SPRITE.HLSLI
^D:\授業\自作ライブラリ\自作\3DGP.00\SPRITE_VS.HLSL
C:\PROGRAM FILES (X86)\WINDOWS KITS\10\BIN\10.0.18362.0\X86\FXC.EXE
D:\授業\自作ライブラリ\自作\3DGP.00\SPRITE.HLSLI
^D:\授業\自作ライブラリ\自作\3DGP.00\STATIC_MESH_PS.HLSL
C:\PROGRAM FILES (X86)\WINDOWS KITS\10\BIN\10.0.18362.0\X86\FXC.EXE
D:\授業\自作ライブラリ\自作\3DGP.00\STATIC_MESH.HLSLI
^D:\授業\自作ライブラリ\自作\3DGP.00\STATIC_MESH_VS.HLSL
C:\PROGRAM FILES (X86)\WINDOWS KITS\10\BIN\10.0.18362.0\X86\FXC.EXE
D:\授業\自作ライブラリ\自作\3DGP.00\STATIC_MESH.HLSLI
