^D:\授業\自作ライブラリ\自作\3DGP.00\DIRECTXTK-MASTER\BIN\DESKTOP_2015\X64\RELEASE\DIRECTXTK.LIB|D:\授業\自作ライブラリ\自作\3DGP.00\X64\RELEASE\BLENDSTATE.OBJ|D:\授業\自作ライブラリ\自作\3DGP.00\X64\RELEASE\BOARD.OBJ|D:\授業\自作ライブラリ\自作\3DGP.00\X64\RELEASE\CAMERA.OBJ|D:\授業\自作ライブラリ\自作\3DGP.00\X64\RELEASE\FBX_LOAD.OBJ|D:\授業\自作ライブラリ\自作\3DGP.00\X64\RELEASE\FRAMEWORK.OBJ|D:\授業\自作ライブラリ\自作\3DGP.00\X64\RELEASE\GEOMETRIC_PRIMITIVE.OBJ|D:\授業\自作ライブラリ\自作\3DGP.00\X64\RELEASE\IMGUI.OBJ|D:\授業\自作ライブラリ\自作\3DGP.00\X64\RELEASE\IMGUI_DEMO.OBJ|D:\授業\自作ライブラリ\自作\3DGP.00\X64\RELEASE\IMGUI_DRAW.OBJ|D:\授業\自作ライブラリ\自作\3DGP.00\X64\RELEASE\IMGUI_IMPL_DX11.OBJ|D:\授業\自作ライブラリ\自作\3DGP.00\X64\RELEASE\IMGUI_IMPL_WIN32.OBJ|D:\授業\自作ライブラリ\自作\3DGP.00\X64\RELEASE\IMGUI_WIDGETS.OBJ|D:\授業\自作ライブラリ\自作\3DGP.00\X64\RELEASE\LOGGER.OBJ|D:\授業\自作ライブラリ\自作\3DGP.00\X64\RELEASE\MAIN.OBJ|D:\授業\自作ライブラリ\自作\3DGP.00\X64\RELEASE\MODEL.OBJ|D:\授業\自作ライブラリ\自作\3DGP.00\X64\RELEASE\MODEL_RENDERER.OBJ|D:\授業\自作ライブラリ\自作\3DGP.00\X64\RELEASE\MODEL_RESOURCE.OBJ|D:\授業\自作ライブラリ\自作\3DGP.00\X64\RELEASE\RESOURCEMANAGER.OBJ|D:\授業\自作ライブラリ\自作\3DGP.00\X64\RELEASE\SCENE_GAME.OBJ|D:\授業\自作ライブラリ\自作\3DGP.00\X64\RELEASE\SCENE_MANAGER.OBJ|D:\授業\自作ライブラリ\自作\3DGP.00\X64\RELEASE\SCENE_TITLE.OBJ|D:\授業\自作ライブラリ\自作\3DGP.00\X64\RELEASE\SKINNED_MESH.OBJ|D:\授業\自作ライブラリ\自作\3DGP.00\X64\RELEASE\SOUND.OBJ|D:\授業\自作ライブラリ\自作\3DGP.00\X64\RELEASE\SOUND_BUFFER.OBJ|D:\授業\自作ライブラリ\自作\3DGP.00\X64\RELEASE\SPRITE.OBJ|D:\授業\自作ライブラリ\自作\3DGP.00\X64\RELEASE\STATIC_MESH.OBJ
D:\授業\自作ライブラリ\自作\3DGP.00\X64\RELEASE\3DGP.EXE
D:\授業\自作ライブラリ\自作\3DGP.00\X64\RELEASE\3DGP.PDB
